1,1,1,1,1,1,1,1,26,26,22,22,13,13,13,13,13,13,4,4,4,4,4,4,4,4,4,4,4,4,4,2,2,2,2,2,2,2,2,2,2,30,30,30,30,1,1,1,24,1,
1,1,1,1,1,1,1,1,1,22,22,13,13,13,13,13,13,13,13,4,4,4,4,4,4,4,4,4,4,4,4,2,2,2,2,2,2,2,2,2,2,2,30,30,1,1,1,1,1,1,
1,1,1,1,1,1,1,1,22,22,22,22,13,13,13,13,13,13,13,13,4,4,4,4,4,4,4,4,4,4,4,4,2,2,2,2,2,2,2,2,2,30,30,1,1,1,1,1,1,1,
1,1,1,1,1,1,1,22,22,22,22,22,22,13,13,13,13,13,13,13,13,4,4,4,4,4,4,4,4,4,4,17,6,2,2,2,2,2,2,2,30,30,1,1,1,1,1,1,1,1,
1,1,1,1,1,1,22,22,22,22,22,22,22,22,13,13,13,13,13,13,13,13,4,4,4,4,4,4,4,4,17,6,6,6,2,2,2,2,2,6,30,1,1,1,1,1,1,1,1,1,
1,1,1,1,1,1,3,22,18,22,22,22,18,13,13,13,13,13,13,13,13,13,13,13,4,4,4,4,4,17,6,6,6,6,6,2,2,2,6,6,6,30,1,1,1,1,1,1,1,1,
1,1,1,1,1,3,3,3,18,18,22,18,13,13,13,13,13,13,13,13,13,13,13,13,35,4,4,4,17,17,17,6,6,6,6,6,2,6,6,6,30,6,30,1,1,1,1,1,1,1,
1,1,1,1,3,3,3,3,3,18,18,13,13,13,13,13,13,13,13,13,13,13,13,21,35,35,4,17,17,17,17,17,6,6,6,6,6,6,6,30,6,6,6,31,1,1,1,1,1,1,
1,1,1,3,3,3,3,3,3,3,18,18,13,13,13,13,13,13,13,13,13,13,21,21,21,35,35,17,17,17,17,17,17,6,6,6,6,6,30,6,6,6,6,6,31,1,1,1,1,1,
1,1,3,3,3,3,3,3,3,3,3,18,18,13,13,13,13,13,13,13,13,21,21,21,21,21,17,17,17,17,17,17,17,17,6,6,6,30,6,6,6,6,6,6,6,31,1,31,31,1,
1,3,3,3,3,3,3,3,3,3,3,3,18,18,13,13,13,13,13,13,21,21,21,21,21,17,17,14,17,17,17,17,17,17,17,6,36,6,6,6,6,6,6,6,6,6,31,31,31,31,
3,3,3,3,3,3,3,3,3,3,3,3,3,18,18,13,13,13,18,21,21,21,21,21,21,21,14,14,14,12,17,17,17,17,17,36,6,6,6,6,6,6,6,6,6,6,6,31,31,31,
3,3,3,3,3,3,3,3,3,3,3,3,18,18,18,18,13,18,21,21,21,21,21,21,21,14,14,14,12,12,12,17,17,17,36,12,36,6,6,6,6,6,6,6,6,6,6,31,31,3,
3,3,3,3,3,3,3,3,3,3,3,18,18,18,18,37,34,34,21,21,21,21,21,21,14,14,14,12,12,12,12,12,17,36,12,12,12,36,6,6,6,6,6,6,6,6,6,6,3,3,
3,3,3,3,3,3,3,3,3,3,37,18,18,18,25,25,34,21,21,21,21,21,21,14,14,14,12,12,12,12,12,12,12,12,12,12,12,12,36,6,6,6,6,6,6,6,6,3,3,3,
3,3,3,3,3,3,3,3,3,37,37,34,18,25,25,25,25,34,21,21,21,21,14,14,14,12,12,12,12,12,12,12,12,12,12,12,12,12,12,6,6,6,6,6,6,6,6,6,3,3,
3,3,3,3,3,3,15,3,15,15,25,25,25,25,25,25,25,25,34,21,21,21,21,14,12,12,12,12,12,12,12,12,12,12,12,12,12,12,12,12,6,6,6,6,6,6,6,6,6,3,
3,3,3,3,3,15,15,15,15,15,15,25,15,25,25,25,25,25,25,21,21,21,21,21,14,12,12,12,12,12,12,12,12,12,12,12,12,12,12,12,12,6,6,6,6,6,6,6,31,5,
5,3,3,3,15,15,15,15,15,15,15,15,15,15,25,25,25,25,25,25,21,21,21,21,21,14,12,12,12,12,12,12,12,12,12,12,12,12,12,12,12,12,6,6,6,6,6,41,5,5,
5,5,3,5,15,15,15,15,15,15,15,15,15,15,15,25,25,25,25,34,34,21,21,21,21,14,14,12,12,12,12,12,12,12,12,12,12,12,12,12,12,12,12,6,6,6,41,5,5,5,
5,5,5,5,5,15,15,15,15,15,15,15,15,15,15,15,25,10,34,34,27,44,21,21,14,14,14,14,12,12,12,14,14,12,12,12,12,12,12,12,12,12,12,12,6,16,5,5,5,5,
5,5,5,5,5,5,15,15,15,15,15,15,15,15,10,15,10,10,10,27,27,27,44,14,14,14,14,14,14,12,14,14,14,14,12,12,12,12,12,12,12,12,12,16,16,5,5,5,5,5,
5,5,5,5,5,15,15,15,15,15,15,15,15,10,10,10,10,10,10,10,27,27,27,14,14,14,14,14,14,14,14,14,14,42,42,12,16,12,12,12,12,12,16,16,16,16,5,5,5,5,
5,5,5,5,38,38,15,15,15,15,15,15,10,10,10,10,10,10,10,10,10,27,14,14,14,14,14,14,14,14,14,14,14,42,42,16,16,16,12,12,12,16,16,16,16,16,16,5,5,5,
5,5,5,38,38,38,15,15,15,15,15,10,10,10,10,10,10,10,10,10,10,10,27,14,14,14,14,14,14,14,14,14,23,42,23,23,16,16,16,12,16,16,16,16,16,16,5,5,5,5,
5,5,38,38,38,15,15,15,15,15,10,10,10,10,10,10,10,10,10,10,10,10,10,27,14,14,14,14,14,14,14,23,23,23,23,23,23,16,16,16,16,16,16,16,16,5,5,5,5,5,
5,5,5,38,15,15,15,15,15,10,10,10,10,10,10,10,10,10,10,10,10,10,27,27,27,14,14,14,14,14,23,23,23,23,23,23,23,23,16,16,16,16,16,16,5,5,5,5,5,5,
5,5,5,5,15,15,15,15,15,15,10,10,10,10,10,10,10,10,10,10,10,27,27,27,27,27,14,14,14,23,23,23,23,23,23,23,23,23,23,16,16,16,23,5,5,5,5,5,5,5,
5,5,5,28,15,15,15,15,15,15,15,10,10,10,10,10,10,10,10,10,10,27,27,27,27,27,23,14,23,23,23,23,23,23,23,23,23,23,23,23,16,23,23,23,5,5,5,5,5,5,
5,5,28,28,28,15,15,15,15,15,15,10,10,10,10,10,10,10,10,10,10,10,27,27,27,27,27,23,23,23,23,23,23,23,23,23,23,23,23,23,23,23,23,5,5,5,5,5,5,5,
5,28,28,28,28,28,15,15,15,15,15,39,10,10,10,10,10,10,10,10,10,19,27,27,27,27,27,27,23,23,23,11,23,23,23,23,23,23,23,23,23,23,5,5,5,5,5,5,5,5,
5,5,28,9,28,28,28,15,15,15,28,39,39,10,10,10,10,10,10,10,19,19,19,27,27,27,27,27,27,23,11,11,11,23,23,23,23,23,23,23,23,5,5,5,5,5,5,5,5,5,
5,28,9,9,9,28,28,28,15,28,28,28,39,39,10,10,10,10,10,19,19,19,19,19,27,27,27,27,27,11,11,11,11,11,23,23,23,40,23,23,8,8,5,5,5,5,5,5,5,5,
38,9,9,9,9,9,28,28,28,28,28,20,39,39,20,10,10,10,19,19,19,19,19,19,19,27,27,27,11,11,11,11,11,11,11,23,40,40,40,8,8,8,8,5,5,5,5,5,5,5,
9,9,9,9,9,9,9,28,28,28,20,20,20,20,20,19,10,19,19,19,19,19,19,19,19,19,27,11,11,11,11,11,11,11,11,11,40,40,8,8,8,8,8,8,5,5,5,5,5,38,
9,9,9,9,9,9,9,9,28,20,20,20,20,20,19,19,19,19,19,19,19,19,19,19,19,19,11,11,11,11,11,11,11,11,11,11,11,8,8,8,8,8,7,8,8,5,5,5,8,8,
8,9,9,9,9,9,9,9,9,20,20,20,20,20,20,19,19,19,19,19,19,19,19,19,19,19,11,11,11,11,11,11,11,11,11,11,8,8,8,8,8,7,7,7,8,8,5,8,8,8,
8,8,9,9,9,9,9,9,9,20,20,20,20,20,20,20,19,19,19,19,19,19,19,19,19,11,11,11,11,11,11,11,11,11,11,11,11,8,8,8,7,7,7,7,7,8,8,8,8,8,
8,8,8,9,9,9,9,9,9,9,20,20,20,20,20,20,20,19,19,19,19,19,19,19,11,11,11,11,11,11,11,11,11,11,11,11,11,7,8,7,7,7,7,7,7,7,8,8,8,8,
8,8,9,9,9,9,9,9,9,9,9,20,20,20,20,20,20,20,19,19,19,19,19,11,11,11,11,11,11,11,11,11,11,11,11,11,7,7,7,7,7,7,7,7,7,7,7,8,8,8,
8,9,9,9,9,9,9,9,9,9,20,20,20,20,20,20,20,20,29,19,29,19,19,19,11,11,11,11,11,11,11,11,11,11,11,7,7,7,7,7,7,7,7,7,7,7,7,7,8,8,
8,8,9,9,9,9,9,9,9,9,20,20,20,20,20,20,20,29,29,29,29,29,19,29,29,11,11,11,11,11,11,11,2,11,7,7,7,7,7,7,7,7,7,7,7,7,7,8,8,8,
8,8,8,9,9,9,9,9,9,20,20,20,20,20,26,20,26,26,29,29,29,29,29,29,33,33,11,11,11,11,11,2,2,2,7,7,7,7,2,7,7,7,7,7,7,7,8,8,8,8,
8,8,9,9,9,9,9,9,24,24,20,20,20,26,26,26,26,26,26,29,29,29,29,29,29,33,33,11,11,11,2,2,2,2,2,7,7,2,2,2,7,7,7,7,7,7,7,8,8,8,
8,43,9,9,9,9,9,24,24,24,26,20,26,26,26,26,26,26,29,29,29,29,4,29,33,33,33,33,11,2,2,2,2,2,2,2,2,2,2,2,2,7,7,7,7,7,8,8,8,8,
43,43,24,9,9,9,24,24,24,24,24,26,26,26,26,26,26,22,29,29,29,4,4,4,33,33,33,33,2,2,2,2,2,2,2,2,2,2,2,2,2,2,7,7,7,8,8,8,8,8,
32,24,24,1,9,24,24,24,24,24,24,24,26,26,26,26,13,22,22,29,4,4,4,4,4,33,33,2,2,2,2,2,2,2,2,2,2,2,2,2,2,2,2,7,32,32,8,8,8,32,
24,24,1,1,1,24,24,24,24,24,24,26,26,26,26,13,13,13,22,4,4,4,4,4,4,4,4,4,2,2,2,2,2,2,2,2,2,2,2,2,2,2,2,2,32,32,32,8,32,32,
24,1,1,1,1,1,24,24,24,24,26,26,22,26,13,13,13,13,4,4,4,4,4,4,4,4,4,4,4,2,2,2,2,2,2,2,2,2,2,2,2,2,2,30,30,32,32,32,32,24,
1,1,1,1,1,1,1,24,24,26,26,22,22,13,13,13,13,4,4,4,4,4,4,4,4,4,4,4,4,4,2,2,2,2,2,2,2,2,2,2,2,2,30,30,30,30,1,32,24,24,
