Wir
0_0_2500
50x50
* height *
3,3,3,3,3,3,3,3,3,3,3,3,3,3,3,3,3,3,3,3,3,3,3,3,3,3,3,3,3,3,3,3,3,3,3,3,3,3,3,3,3,3,3,3,3,3,3,3,3,3,
3,3,3,3,3,3,3,3,3,3,3,3,3,3,3,3,3,3,3,3,3,3,3,3,3,3,3,3,3,3,3,3,3,3,3,3,3,3,3,3,3,3,3,3,3,3,3,3,3,3,
3,3,3,3,3,3,3,3,3,3,3,3,3,3,3,3,3,3,3,3,3,3,3,3,3,3,3,3,3,3,3,3,3,3,3,3,3,3,3,3,3,3,3,3,3,3,3,3,3,3,
3,3,3,3,3,3,3,3,3,3,3,3,3,3,3,3,3,3,3,3,3,3,3,3,3,3,3,3,3,3,3,3,3,3,3,3,3,3,3,3,3,3,3,3,3,3,3,3,3,3,
3,3,3,3,3,3,3,3,3,3,3,3,3,3,3,3,3,3,3,3,3,3,3,3,3,3,3,3,3,3,3,3,3,3,3,3,3,3,3,3,3,3,3,3,3,3,3,3,3,3,
3,3,3,3,3,3,3,3,3,3,3,3,3,3,3,3,3,3,3,3,3,3,3,3,3,3,3,3,3,3,3,3,3,3,3,3,3,3,3,3,3,3,3,3,3,3,3,3,3,3,
3,3,3,3,3,3,3,3,3,3,3,3,3,3,3,3,3,3,3,3,3,3,3,3,3,3,3,3,3,3,3,3,3,3,3,3,3,3,3,3,3,3,3,3,3,3,3,3,3,3,
3,3,3,3,3,3,3,3,3,3,3,3,3,3,3,3,3,3,3,3,3,3,3,3,3,3,3,3,3,3,3,3,3,3,3,3,3,3,3,3,3,3,3,3,3,3,3,3,3,3,
3,3,3,3,3,3,3,3,3,3,3,3,3,3,3,3,3,3,3,3,3,3,3,3,3,3,3,3,3,3,3,3,3,3,3,3,3,3,3,3,3,3,3,3,3,3,3,3,3,3,
3,3,3,3,3,3,3,3,3,3,3,3,3,3,3,3,3,3,3,3,3,3,3,3,3,3,3,3,3,3,3,3,3,3,3,3,3,3,3,3,3,3,3,3,3,3,3,3,3,3,
3,3,3,3,3,3,3,3,3,3,3,3,3,3,3,3,3,3,3,62,3,3,3,3,3,3,3,3,3,3,3,3,3,3,3,3,3,3,3,3,3,3,3,3,3,3,3,3,3,3,
3,3,3,3,3,3,3,3,3,3,3,3,3,3,3,3,3,3,82,76,76,3,3,3,3,3,3,3,3,3,3,3,3,3,3,3,3,3,3,3,3,3,3,3,3,3,3,3,3,3,
3,3,3,3,3,3,3,3,3,3,3,3,3,3,3,3,3,68,73,55,71,88,3,3,3,3,3,3,3,3,3,3,3,3,3,3,3,3,3,3,3,3,3,3,3,3,3,3,3,3,
3,3,3,3,3,3,3,3,3,3,3,3,3,3,3,3,100,72,92,74,61,93,91,3,3,3,3,3,3,3,3,3,3,3,3,3,3,3,3,3,3,3,3,3,3,3,3,3,3,3,
3,3,3,3,3,3,3,3,3,3,3,3,3,3,3,83,94,92,74,71,83,80,97,76,3,3,3,3,3,3,3,3,3,3,3,3,3,3,3,3,3,3,3,3,3,3,3,3,3,3,
3,3,3,3,3,3,3,3,3,3,3,3,3,3,60,54,55,77,69,155,102,65,92,63,81,3,3,3,3,3,3,3,3,3,3,3,3,3,3,3,3,3,3,3,3,3,3,3,3,3,
3,3,3,3,3,3,3,3,3,3,3,3,3,100,64,100,57,94,189,158,142,82,95,59,53,63,3,3,3,3,3,3,3,3,3,3,3,3,3,3,3,3,3,3,3,3,3,3,3,3,
3,3,3,3,3,3,3,3,3,3,3,3,81,53,59,101,63,145,145,187,157,166,100,62,97,59,79,3,3,3,3,3,3,3,3,3,3,3,3,3,3,3,3,3,3,3,3,3,3,3,
3,3,3,3,3,3,3,3,3,3,3,69,94,93,86,92,145,173,162,148,153,130,176,64,89,82,85,74,3,3,3,3,3,3,3,3,3,3,3,3,3,3,3,3,3,3,3,3,3,3,
3,3,3,3,3,3,3,3,3,3,3,3,83,79,91,125,123,165,146,273,174,140,150,135,58,100,92,3,3,3,3,3,3,3,3,3,3,3,3,3,3,3,3,3,3,3,3,3,3,3,
3,3,3,3,3,3,3,3,3,3,3,3,3,101,80,63,150,163,228,242,247,115,141,64,61,56,3,3,3,3,3,3,3,3,3,3,3,3,3,3,3,3,3,3,3,3,3,3,3,3,
3,3,3,3,3,3,3,3,3,3,3,3,3,3,66,76,71,221,248,248,202,192,71,87,97,3,3,3,3,3,3,3,3,3,3,3,3,3,3,62,3,3,3,3,3,3,3,3,3,3,
3,3,3,3,3,3,3,3,3,3,3,3,3,3,3,100,153,172,245,224,246,163,161,91,3,3,3,3,3,3,3,3,3,3,3,3,3,3,78,67,82,3,3,3,3,3,3,3,3,3,
3,3,3,3,3,3,3,3,3,3,3,3,3,3,3,60,191,163,113,260,140,163,182,90,3,3,3,3,3,3,3,3,3,3,3,3,3,179,55,84,53,79,3,3,3,3,3,3,3,3,
3,3,3,3,3,3,3,3,3,3,3,3,3,3,3,3,142,140,173,137,168,143,80,3,3,3,3,3,3,3,3,3,3,3,3,3,158,135,189,60,102,96,80,3,3,3,3,3,3,3,
3,3,3,3,3,3,3,3,3,3,3,3,3,3,3,170,58,139,167,157,185,60,3,3,3,3,3,3,3,3,3,3,3,3,3,120,169,196,186,218,63,75,98,86,3,3,3,3,3,3,
3,3,3,3,3,3,3,3,3,3,3,3,3,3,134,185,149,59,163,120,94,3,3,3,3,3,3,3,3,3,3,3,3,3,80,60,221,236,223,193,251,81,102,3,3,3,3,3,3,3,
3,3,3,3,3,3,3,3,3,3,3,3,3,174,160,149,162,123,78,171,3,3,3,3,3,3,3,3,3,3,3,3,3,80,63,64,80,234,182,235,174,146,3,3,3,3,3,3,3,3,
3,3,3,3,3,3,3,3,3,3,3,3,143,159,133,116,180,173,153,54,83,3,3,3,3,3,3,3,3,3,3,3,3,3,82,99,69,66,210,167,179,3,3,3,3,3,3,3,3,3,
3,3,3,3,3,3,3,3,3,3,3,154,129,142,178,158,184,142,165,124,91,80,3,3,3,3,3,3,3,3,3,3,3,3,3,95,82,92,54,158,3,3,3,3,3,3,3,3,3,3,
3,3,3,3,3,3,3,3,3,3,160,167,132,146,162,242,232,211,148,122,124,67,87,3,3,3,3,3,3,3,3,3,3,3,3,3,66,65,100,3,3,3,3,3,3,3,3,3,3,3,
3,3,3,3,3,3,3,3,3,140,161,160,153,153,252,188,253,239,240,129,163,136,64,88,3,3,3,3,3,3,3,3,3,3,3,3,3,55,3,3,3,3,3,3,3,3,3,3,3,3,
3,3,3,3,3,3,3,3,163,165,147,186,146,254,198,227,273,225,224,241,153,178,144,97,98,3,3,3,3,3,3,3,3,3,3,3,3,3,3,3,3,3,3,3,3,3,3,3,3,3,
3,3,3,3,3,3,3,89,81,144,181,158,223,243,207,218,187,246,215,231,218,170,171,142,3,3,3,3,3,3,3,3,3,3,3,3,3,3,3,3,3,3,3,3,3,3,3,3,3,3,
3,3,3,3,3,3,3,3,75,88,131,147,144,236,173,228,204,239,192,207,168,182,134,3,3,3,3,3,3,3,3,3,3,3,3,3,3,3,3,3,3,3,3,3,3,3,3,3,3,3,
3,3,3,3,3,3,3,3,3,79,89,141,180,199,213,201,228,223,202,157,126,145,3,3,3,3,3,3,3,3,3,3,3,3,3,3,3,3,3,3,3,3,3,3,3,3,3,3,3,3,
3,3,3,3,3,3,3,3,3,3,89,86,174,194,141,191,243,228,114,130,142,3,3,3,3,3,3,3,3,3,3,3,3,3,3,3,3,3,3,3,3,3,3,3,3,3,3,3,3,3,
3,3,3,3,3,3,3,3,3,3,3,90,58,109,129,144,249,144,116,111,3,3,3,3,3,3,3,3,3,3,3,3,3,3,3,3,3,3,3,3,3,3,3,3,3,3,3,3,3,3,
3,3,3,3,3,3,3,3,3,3,3,3,55,98,165,173,153,184,162,3,3,3,3,3,3,3,3,3,3,3,3,3,3,3,3,3,3,3,3,3,3,3,3,3,3,3,3,3,3,3,
3,3,3,3,3,3,3,3,3,3,3,3,3,62,102,133,150,174,3,3,3,3,3,3,3,3,3,3,3,3,3,3,3,3,3,3,3,3,3,3,3,3,3,3,3,3,3,3,3,3,
3,3,3,3,3,3,3,3,3,3,3,3,3,3,98,97,155,3,3,3,3,3,3,3,3,3,3,3,3,3,3,3,3,3,3,3,3,3,3,3,3,3,3,3,3,3,3,3,3,3,
3,3,3,3,3,3,3,3,3,3,3,3,3,3,3,91,3,3,3,3,3,3,3,3,3,3,3,3,3,3,3,3,3,3,3,3,3,3,3,3,3,3,3,3,3,3,3,3,3,3,
3,3,3,3,3,3,3,3,3,3,3,3,3,3,3,3,3,3,3,3,3,3,3,3,3,3,3,3,3,3,3,3,3,3,3,3,3,3,3,3,3,3,3,3,3,3,3,3,3,3,
3,3,3,3,3,3,3,3,3,3,3,3,3,3,3,3,3,3,3,3,3,3,3,3,3,3,3,3,3,3,3,3,3,3,3,3,3,3,3,3,3,3,3,3,3,3,3,3,3,3,
3,3,3,3,3,3,3,3,3,3,3,3,3,3,3,3,3,3,3,3,3,3,3,3,3,3,3,3,3,3,3,3,3,3,3,3,3,3,3,3,3,3,3,3,3,3,3,3,3,3,
3,3,3,3,3,3,3,3,3,3,3,3,3,3,3,3,3,3,3,3,3,3,3,3,3,3,3,3,3,3,3,3,3,3,3,3,3,3,3,3,3,3,3,3,3,3,3,3,3,3,
3,3,3,3,3,3,3,3,3,3,3,3,3,3,3,3,3,3,3,3,3,3,3,3,3,3,3,3,3,3,3,3,3,3,3,3,3,3,3,3,3,3,3,3,3,3,3,3,3,3,
3,3,3,3,3,3,3,3,3,3,3,3,3,3,3,3,3,3,3,3,3,3,3,3,3,3,3,3,3,3,3,3,3,3,3,3,3,3,3,3,3,3,3,3,3,3,3,3,3,3,
3,3,3,3,3,3,3,3,3,3,3,3,3,3,3,3,3,3,3,3,3,3,3,3,3,3,3,3,3,3,3,3,3,3,3,3,3,3,3,3,3,3,3,3,3,3,3,3,3,3,
3,3,3,3,3,3,3,3,3,3,3,3,3,3,3,3,3,3,3,3,3,3,3,3,3,3,3,3,3,3,3,3,3,3,3,3,3,3,3,3,3,3,3,3,3,3,3,3,3,3,
* depth *
0.00,0.00,0.00,0.00,0.00,0.00,0.00,0.00,0.00,0.00,0.00,0.00,0.00,0.00,0.00,0.00,0.00,0.00,0.00,0.00,0.00,0.00,0.00,0.00,0.00,0.00,0.00,0.00,0.00,0.00,0.00,0.00,0.00,0.00,0.00,0.00,0.00,0.00,0.00,0.00,0.00,0.00,0.00,0.00,0.00,0.00,0.00,0.00,0.00,0.00,
0.00,0.00,0.00,0.00,0.00,0.00,0.00,0.00,0.00,0.00,0.00,0.00,0.00,0.00,0.00,0.00,0.00,0.00,0.00,0.00,0.00,0.00,0.00,0.00,0.00,0.00,0.00,0.00,0.00,0.00,0.00,0.00,0.00,0.00,0.00,0.00,0.00,0.00,0.00,0.00,0.00,0.00,0.00,0.00,0.00,0.00,0.00,0.00,0.00,0.00,
0.00,0.00,0.00,0.00,0.00,0.00,0.00,0.00,0.00,0.00,0.00,0.00,0.00,0.00,0.00,0.00,0.00,0.00,0.00,0.00,0.00,0.00,0.00,0.00,0.00,0.00,0.00,0.00,0.00,0.00,0.00,0.00,0.00,0.00,0.00,0.00,0.00,0.00,0.00,0.00,0.00,0.00,0.00,0.00,0.00,0.00,0.00,0.00,0.00,0.00,
0.00,0.00,0.00,0.00,0.00,0.00,0.00,0.00,0.00,0.00,0.00,0.00,0.00,0.00,0.00,0.00,0.00,0.00,0.00,0.00,0.00,0.00,0.00,0.00,0.00,0.00,0.00,0.00,0.00,0.00,0.00,0.00,0.00,0.00,0.00,0.00,0.00,0.00,0.00,0.00,0.00,0.00,0.00,0.00,0.00,0.00,0.00,0.00,0.00,0.00,
0.00,0.00,0.00,0.00,0.00,0.00,0.00,0.00,0.00,0.00,0.00,0.00,0.00,0.00,0.00,0.00,0.00,0.00,0.00,0.00,0.00,0.00,0.00,0.00,0.00,0.00,0.00,0.00,0.00,0.00,0.00,0.00,0.00,0.00,0.00,0.00,0.00,0.00,0.00,0.00,0.00,0.00,0.00,0.00,0.00,0.00,0.00,0.00,0.00,0.00,
0.00,0.00,0.00,0.00,0.00,0.00,0.00,0.00,0.00,0.00,0.00,0.00,0.00,0.00,0.00,0.00,0.00,0.00,0.00,0.00,0.00,0.00,0.00,0.00,0.00,0.00,0.00,0.00,0.00,0.00,0.00,0.00,0.00,0.00,0.00,0.00,0.00,0.00,0.00,0.00,0.00,0.00,0.00,0.00,0.00,0.00,0.00,0.00,0.00,0.00,
0.00,0.00,0.00,0.00,0.00,0.00,0.00,0.00,0.00,0.00,0.00,0.00,0.00,0.00,0.00,0.00,0.00,0.00,0.00,0.00,0.00,0.00,0.00,0.00,0.00,0.00,0.00,0.00,0.00,0.00,0.00,0.00,0.00,0.00,0.00,0.00,0.00,0.00,0.00,0.00,0.00,0.00,0.00,0.00,0.00,0.00,0.00,0.00,0.00,0.00,
0.00,0.00,0.00,0.00,0.00,0.00,0.00,0.00,0.00,0.00,0.00,0.00,0.00,0.00,0.00,0.00,0.00,0.00,0.00,0.00,0.00,0.00,0.00,0.00,0.00,0.00,0.00,0.00,0.00,0.00,0.00,0.00,0.00,0.00,0.00,0.00,0.00,0.00,0.00,0.00,0.00,0.00,0.00,0.00,0.00,0.00,0.00,0.00,0.00,0.00,
0.00,0.00,0.00,0.00,0.00,0.00,0.00,0.00,0.00,0.00,0.00,0.00,0.00,0.00,0.00,0.00,0.00,0.00,0.00,0.00,0.00,0.00,0.00,0.00,0.00,0.00,0.00,0.00,0.00,0.00,0.00,0.00,0.00,0.00,0.00,0.00,0.00,0.00,0.00,0.00,0.00,0.00,0.00,0.00,0.00,0.00,0.00,0.00,0.00,0.00,
0.00,0.00,0.00,0.00,0.00,0.00,0.00,0.00,0.00,0.00,0.00,0.00,0.00,0.00,0.00,0.00,0.00,0.00,0.00,0.00,0.00,0.00,0.00,0.00,0.00,0.00,0.00,0.00,0.00,0.00,0.00,0.00,0.00,0.00,0.00,0.00,0.00,0.00,0.00,0.00,0.00,0.00,0.00,0.00,0.00,0.00,0.00,0.00,0.00,0.00,
0.00,0.00,0.00,0.00,0.00,0.00,0.00,0.00,0.00,0.00,0.00,0.00,0.00,0.00,0.00,0.00,0.00,0.00,0.00,0.00,0.00,0.00,0.00,0.00,0.00,0.00,0.00,0.00,0.00,0.00,0.00,0.00,0.00,0.00,0.00,0.00,0.00,0.00,0.00,0.00,0.00,0.00,0.00,0.00,0.00,0.00,0.00,0.00,0.00,0.00,
0.00,0.00,0.00,0.00,0.00,0.00,0.00,0.00,0.00,0.00,0.00,0.00,0.00,0.00,0.00,0.00,0.00,0.00,0.00,0.00,0.00,0.00,0.00,0.00,0.00,0.00,0.00,0.00,0.00,0.00,0.00,0.00,0.00,0.00,0.00,0.00,0.00,0.00,0.00,0.00,0.00,0.00,0.00,0.00,0.00,0.00,0.00,0.00,0.00,0.00,
0.00,0.00,0.00,0.00,0.00,0.00,0.00,0.00,0.00,0.00,0.00,0.00,0.00,0.00,0.00,0.00,0.00,0.00,0.00,0.00,0.00,0.00,0.00,0.00,0.00,0.00,0.00,0.00,0.00,0.00,0.00,0.00,0.00,0.00,0.00,0.00,0.00,0.00,0.00,0.00,0.00,0.00,0.00,0.00,0.00,0.00,0.00,0.00,0.00,0.00,
0.00,0.00,0.00,0.00,0.00,0.00,0.00,0.00,0.00,0.00,0.00,0.00,0.00,0.00,0.00,0.00,0.00,0.00,0.00,0.00,0.00,0.00,0.00,0.00,0.00,0.00,0.00,0.00,0.00,0.00,0.00,0.00,0.00,0.00,0.00,0.00,0.00,0.00,0.00,0.00,0.00,0.00,0.00,0.00,0.00,0.00,0.00,0.00,0.00,0.00,
0.00,0.00,0.00,0.00,0.00,0.00,0.00,0.00,0.00,0.00,0.00,0.00,0.00,0.00,0.00,0.00,0.00,0.00,0.00,0.00,0.00,0.00,0.00,0.00,0.00,0.00,0.00,0.00,0.00,0.00,0.00,0.00,0.00,0.00,0.00,0.00,0.00,0.00,0.00,0.00,0.00,0.00,0.00,0.00,0.00,0.00,0.00,0.00,0.00,0.00,
0.00,0.00,0.00,0.00,0.00,0.00,0.00,0.00,0.00,0.00,0.00,0.00,0.00,0.00,0.00,0.00,0.00,0.00,0.00,0.00,0.00,0.00,0.00,0.00,0.00,0.00,0.00,0.00,0.00,0.00,0.00,0.00,0.00,0.00,0.00,0.00,0.00,0.00,0.00,0.00,0.00,0.00,0.00,0.00,0.00,0.00,0.00,0.00,0.00,0.00,
0.00,0.00,0.00,0.00,0.00,0.00,0.00,0.00,0.00,0.00,0.00,0.00,0.00,0.00,0.00,0.00,0.00,0.00,0.00,0.00,0.00,0.00,0.00,0.00,0.00,0.00,0.00,0.00,0.00,0.00,0.00,0.00,0.00,0.00,0.00,0.00,0.00,0.00,0.00,0.00,0.00,0.00,0.00,0.00,0.00,0.00,0.00,0.00,0.00,0.00,
0.00,0.00,0.00,0.00,0.00,0.00,0.00,0.00,0.00,0.00,0.00,0.00,0.00,0.00,0.00,0.00,0.00,0.00,0.00,0.00,0.00,0.00,0.00,0.00,0.00,0.00,0.00,0.00,0.00,0.00,0.00,0.00,0.00,0.00,0.00,0.00,0.00,0.00,0.00,0.00,0.00,0.00,0.00,0.00,0.00,0.00,0.00,0.00,0.00,0.00,
0.00,0.00,0.00,0.00,0.00,0.00,0.00,0.00,0.00,0.00,0.00,0.00,0.00,0.00,0.00,0.00,0.00,0.00,0.00,0.00,0.00,0.00,0.00,0.00,0.00,0.00,0.00,0.00,0.00,0.00,0.00,0.00,0.00,0.00,0.00,0.00,0.00,0.00,0.00,0.00,0.00,0.00,0.00,0.00,0.00,0.00,0.00,0.00,0.00,0.00,
0.00,0.00,0.00,0.00,0.00,0.00,0.00,0.00,0.00,0.00,0.00,0.00,0.00,0.00,0.00,0.00,0.00,0.00,0.00,0.00,0.00,0.00,0.00,0.00,0.00,0.00,0.00,0.00,0.00,0.00,0.00,0.00,0.00,0.00,0.00,0.00,0.00,0.00,0.00,0.00,0.00,0.00,0.00,0.00,0.00,0.00,0.00,0.00,0.00,0.00,
0.00,0.00,0.00,0.00,0.00,0.00,0.00,0.00,0.00,0.00,0.00,0.00,0.00,0.00,0.00,0.00,0.00,0.00,0.00,0.00,0.00,0.00,0.00,0.00,0.00,0.00,0.00,0.00,0.00,0.00,0.00,0.00,0.00,0.00,0.00,0.00,0.00,0.00,0.00,0.00,0.00,0.00,0.00,0.00,0.00,0.00,0.00,0.00,0.00,0.00,
0.00,0.00,0.00,0.00,0.00,0.00,0.00,0.00,0.00,0.00,0.00,0.00,0.00,0.00,0.00,0.00,0.00,0.00,0.00,0.00,0.00,0.00,0.00,0.00,0.00,0.00,0.00,0.00,0.00,0.00,0.00,0.00,0.00,0.00,0.00,0.00,0.00,0.00,0.00,0.00,0.00,0.00,0.00,0.00,0.00,0.00,0.00,0.00,0.00,0.00,
0.00,0.00,0.00,0.00,0.00,0.00,0.00,0.00,0.00,0.00,0.00,0.00,0.00,0.00,0.00,0.00,0.00,0.00,0.00,0.00,0.00,0.00,0.00,0.00,0.00,0.00,0.00,0.00,0.00,0.00,0.00,0.00,0.00,0.00,0.00,0.00,0.00,0.00,0.00,0.00,0.00,0.00,0.00,0.00,0.00,0.00,0.00,0.00,0.00,0.00,
0.00,0.00,0.00,0.00,0.00,0.00,0.00,0.00,0.00,0.00,0.00,0.00,0.00,0.00,0.00,0.00,0.00,0.00,0.00,0.00,0.00,0.00,0.00,0.00,0.00,0.00,0.00,0.00,0.00,0.00,0.00,0.00,0.00,0.00,0.00,0.00,0.00,0.00,0.00,0.00,0.00,0.00,0.00,0.00,0.00,0.00,0.00,0.00,0.00,0.00,
0.00,0.00,0.00,0.00,0.00,0.00,0.00,0.00,0.00,0.00,0.00,0.00,0.00,0.00,0.00,0.00,0.00,0.00,0.00,0.00,0.00,0.00,0.00,0.00,0.00,0.00,0.00,0.00,0.00,0.00,0.00,0.00,0.00,0.00,0.00,0.00,0.00,0.00,0.00,0.00,0.00,0.00,0.00,0.00,0.00,0.00,0.00,0.00,0.00,0.00,
0.00,0.00,0.00,0.00,0.00,0.00,0.00,0.00,0.00,0.00,0.00,0.00,0.00,0.00,0.00,0.00,0.00,0.00,0.00,0.00,0.00,0.00,0.00,0.00,0.00,0.00,0.00,0.00,0.00,0.00,0.00,0.00,0.00,0.00,0.00,0.00,0.00,0.00,0.00,0.00,0.00,0.00,0.00,0.00,0.00,0.00,0.00,0.00,0.00,0.00,
0.00,0.00,0.00,0.00,0.00,0.00,0.00,0.00,0.00,0.00,0.00,0.00,0.00,0.00,0.00,0.00,0.00,0.00,0.00,0.00,0.00,0.00,0.00,0.00,0.00,0.00,0.00,0.00,0.00,0.00,0.00,0.00,0.00,0.00,0.00,0.00,0.00,0.00,0.00,0.00,0.00,0.00,0.00,0.00,0.00,0.00,0.00,0.00,0.00,0.00,
0.00,0.00,0.00,0.00,0.00,0.00,0.00,0.00,0.00,0.00,0.00,0.00,0.00,0.00,0.00,0.00,0.00,0.00,0.00,0.00,0.00,0.00,0.00,0.00,0.00,0.00,0.00,0.00,0.00,0.00,0.00,0.00,0.00,0.00,0.00,0.00,0.00,0.00,0.00,0.00,0.00,0.00,0.00,0.00,0.00,0.00,0.00,0.00,0.00,0.00,
0.00,0.00,0.00,0.00,0.00,0.00,0.00,0.00,0.00,0.00,0.00,0.00,0.00,0.00,0.00,0.00,0.00,0.00,0.00,0.00,0.00,0.00,0.00,0.00,0.00,0.00,0.00,0.00,0.00,0.00,0.00,0.00,0.00,0.00,0.00,0.00,0.00,0.00,0.00,0.00,0.00,0.00,0.00,0.00,0.00,0.00,0.00,0.00,0.00,0.00,
0.00,0.00,0.00,0.00,0.00,0.00,0.00,0.00,0.00,0.00,0.00,0.00,0.00,0.00,0.00,0.00,0.00,0.00,0.00,0.00,0.00,0.00,0.00,0.00,0.00,0.00,0.00,0.00,0.00,0.00,0.00,0.00,0.00,0.00,0.00,0.00,0.00,0.00,0.00,0.00,0.00,0.00,0.00,0.00,0.00,0.00,0.00,0.00,0.00,0.00,
0.00,0.00,0.00,0.00,0.00,0.00,0.00,0.00,0.00,0.00,0.00,0.00,0.00,0.00,0.00,0.00,0.00,0.00,0.00,0.00,0.00,0.00,0.00,0.00,0.00,0.00,0.00,0.00,0.00,0.00,0.00,0.00,0.00,0.00,0.00,0.00,0.00,0.00,0.00,0.00,0.00,0.00,0.00,0.00,0.00,0.00,0.00,0.00,0.00,0.00,
0.00,0.00,0.00,0.00,0.00,0.00,0.00,0.00,0.00,0.00,0.00,0.00,0.00,0.00,0.00,0.00,0.00,0.00,0.00,0.00,0.00,0.00,0.00,0.00,0.00,0.00,0.00,0.00,0.00,0.00,0.00,0.00,0.00,0.00,0.00,0.00,0.00,0.00,0.00,0.00,0.00,0.00,0.00,0.00,0.00,0.00,0.00,0.00,0.00,0.00,
0.00,0.00,0.00,0.00,0.00,0.00,0.00,0.00,0.00,0.00,0.00,0.00,0.00,0.00,0.00,0.00,0.00,0.00,0.00,0.00,0.00,0.00,0.00,0.00,0.00,0.00,0.00,0.00,0.00,0.00,0.00,0.00,0.00,0.00,0.00,0.00,0.00,0.00,0.00,0.00,0.00,0.00,0.00,0.00,0.00,0.00,0.00,0.00,0.00,0.00,
0.00,0.00,0.00,0.00,0.00,0.00,0.00,0.00,0.00,0.00,0.00,0.00,0.00,0.00,0.00,0.00,0.00,0.00,0.00,0.00,0.00,0.00,0.00,0.00,0.00,0.00,0.00,0.00,0.00,0.00,0.00,0.00,0.00,0.00,0.00,0.00,0.00,0.00,0.00,0.00,0.00,0.00,0.00,0.00,0.00,0.00,0.00,0.00,0.00,0.00,
0.00,0.00,0.00,0.00,0.00,0.00,0.00,0.00,0.00,0.00,0.00,0.00,0.00,0.00,0.00,0.00,0.00,0.00,0.00,0.00,0.00,0.00,0.00,0.00,0.00,0.00,0.00,0.00,0.00,0.00,0.00,0.00,0.00,0.00,0.00,0.00,0.00,0.00,0.00,0.00,0.00,0.00,0.00,0.00,0.00,0.00,0.00,0.00,0.00,0.00,
0.00,0.00,0.00,0.00,0.00,0.00,0.00,0.00,0.00,0.00,0.00,0.00,0.00,0.00,0.00,0.00,0.00,0.00,0.00,0.00,0.00,0.00,0.00,0.00,0.00,0.00,0.00,0.00,0.00,0.00,0.00,0.00,0.00,0.00,0.00,0.00,0.00,0.00,0.00,0.00,0.00,0.00,0.00,0.00,0.00,0.00,0.00,0.00,0.00,0.00,
0.00,0.00,0.00,0.00,0.00,0.00,0.00,0.00,0.00,0.00,0.00,0.00,0.00,0.00,0.00,0.00,0.00,0.00,0.00,0.00,0.00,0.00,0.00,0.00,0.00,0.00,0.00,0.00,0.00,0.00,0.00,0.00,0.00,0.00,0.00,0.00,0.00,0.00,0.00,0.00,0.00,0.00,0.00,0.00,0.00,0.00,0.00,0.00,0.00,0.00,
0.00,0.00,0.00,0.00,0.00,0.00,0.00,0.00,0.00,0.00,0.00,0.00,0.00,0.00,0.00,0.00,0.00,0.00,0.00,0.00,0.00,0.00,0.00,0.00,0.00,0.00,0.00,0.00,0.00,0.00,0.00,0.00,0.00,0.00,0.00,0.00,0.00,0.00,0.00,0.00,0.00,0.00,0.00,0.00,0.00,0.00,0.00,0.00,0.00,0.00,
0.00,0.00,0.00,0.00,0.00,0.00,0.00,0.00,0.00,0.00,0.00,0.00,0.00,0.00,0.00,0.00,0.00,0.00,0.00,0.00,0.00,0.00,0.00,0.00,0.00,0.00,0.00,0.00,0.00,0.00,0.00,0.00,0.00,0.00,0.00,0.00,0.00,0.00,0.00,0.00,0.00,0.00,0.00,0.00,0.00,0.00,0.00,0.00,0.00,0.00,
0.00,0.00,0.00,0.00,0.00,0.00,0.00,0.00,0.00,0.00,0.00,0.00,0.00,0.00,0.00,0.00,0.00,0.00,0.00,0.00,0.00,0.00,0.00,0.00,0.00,0.00,0.00,0.00,0.00,0.00,0.00,0.00,0.00,0.00,0.00,0.00,0.00,0.00,0.00,0.00,0.00,0.00,0.00,0.00,0.00,0.00,0.00,0.00,0.00,0.00,
0.00,0.00,0.00,0.00,0.00,0.00,0.00,0.00,0.00,0.00,0.00,0.00,0.00,0.00,0.00,0.00,0.00,0.00,0.00,0.00,0.00,0.00,0.00,0.00,0.00,0.00,0.00,0.00,0.00,0.00,0.00,0.00,0.00,0.00,0.00,0.00,0.00,0.00,0.00,0.00,0.00,0.00,0.00,0.00,0.00,0.00,0.00,0.00,0.00,0.00,
0.00,0.00,0.00,0.00,0.00,0.00,0.00,0.00,0.00,0.00,0.00,0.00,0.00,0.00,0.00,0.00,0.00,0.00,0.00,0.00,0.00,0.00,0.00,0.00,0.00,0.00,0.00,0.00,0.00,0.00,0.00,0.00,0.00,0.00,0.00,0.00,0.00,0.00,0.00,0.00,0.00,0.00,0.00,0.00,0.00,0.00,0.00,0.00,0.00,0.00,
0.00,0.00,0.00,0.00,0.00,0.00,0.00,0.00,0.00,0.00,0.00,0.00,0.00,0.00,0.00,0.00,0.00,0.00,0.00,0.00,0.00,0.00,0.00,0.00,0.00,0.00,0.00,0.00,0.00,0.00,0.00,0.00,0.00,0.00,0.00,0.00,0.00,0.00,0.00,0.00,0.00,0.00,0.00,0.00,0.00,0.00,0.00,0.00,0.00,0.00,
0.00,0.00,0.00,0.00,0.00,0.00,0.00,0.00,0.00,0.00,0.00,0.00,0.00,0.00,0.00,0.00,0.00,0.00,0.00,0.00,0.00,0.00,0.00,0.00,0.00,0.00,0.00,0.00,0.00,0.00,0.00,0.00,0.00,0.00,0.00,0.00,0.00,0.00,0.00,0.00,0.00,0.00,0.00,0.00,0.00,0.00,0.00,0.00,0.00,0.00,
0.00,0.00,0.00,0.00,0.00,0.00,0.00,0.00,0.00,0.00,0.00,0.00,0.00,0.00,0.00,0.00,0.00,0.00,0.00,0.00,0.00,0.00,0.00,0.00,0.00,0.00,0.00,0.00,0.00,0.00,0.00,0.00,0.00,0.00,0.00,0.00,0.00,0.00,0.00,0.00,0.00,0.00,0.00,0.00,0.00,0.00,0.00,0.00,0.00,0.00,
0.00,0.00,0.00,0.00,0.00,0.00,0.00,0.00,0.00,0.00,0.00,0.00,0.00,0.00,0.00,0.00,0.00,0.00,0.00,0.00,0.00,0.00,0.00,0.00,0.00,0.00,0.00,0.00,0.00,0.00,0.00,0.00,0.00,0.00,0.00,0.00,0.00,0.00,0.00,0.00,0.00,0.00,0.00,0.00,0.00,0.00,0.00,0.00,0.00,0.00,
0.00,0.00,0.00,0.00,0.00,0.00,0.00,0.00,0.00,0.00,0.00,0.00,0.00,0.00,0.00,0.00,0.00,0.00,0.00,0.00,0.00,0.00,0.00,0.00,0.00,0.00,0.00,0.00,0.00,0.00,0.00,0.00,0.00,0.00,0.00,0.00,0.00,0.00,0.00,0.00,0.00,0.00,0.00,0.00,0.00,0.00,0.00,0.00,0.00,0.00,
0.00,0.00,0.00,0.00,0.00,0.00,0.00,0.00,0.00,0.00,0.00,0.00,0.00,0.00,0.00,0.00,0.00,0.00,0.00,0.00,0.00,0.00,0.00,0.00,0.00,0.00,0.00,0.00,0.00,0.00,0.00,0.00,0.00,0.00,0.00,0.00,0.00,0.00,0.00,0.00,0.00,0.00,0.00,0.00,0.00,0.00,0.00,0.00,0.00,0.00,
0.00,0.00,0.00,0.00,0.00,0.00,0.00,0.00,0.00,0.00,0.00,0.00,0.00,0.00,0.00,0.00,0.00,0.00,0.00,0.00,0.00,0.00,0.00,0.00,0.00,0.00,0.00,0.00,0.00,0.00,0.00,0.00,0.00,0.00,0.00,0.00,0.00,0.00,0.00,0.00,0.00,0.00,0.00,0.00,0.00,0.00,0.00,0.00,0.00,0.00,
0.00,0.00,0.00,0.00,0.00,0.00,0.00,0.00,0.00,0.00,0.00,0.00,0.00,0.00,0.00,0.00,0.00,0.00,0.00,0.00,0.00,0.00,0.00,0.00,0.00,0.00,0.00,0.00,0.00,0.00,0.00,0.00,0.00,0.00,0.00,0.00,0.00,0.00,0.00,0.00,0.00,0.00,0.00,0.00,0.00,0.00,0.00,0.00,0.00,0.00,
* tectonic *
5,5,5,22,22,22,22,22,44,44,39,4,4,4,24,24,24,24,24,6,6,6,24,6,6,6,6,6,21,25,25,25,25,27,27,27,27,27,27,27,27,27,27,28,14,14,14,14,14,14,
5,5,5,5,22,5,22,44,44,39,39,39,4,24,24,24,24,24,6,6,6,6,6,6,6,6,6,6,6,25,25,25,25,25,27,27,27,27,27,27,27,27,27,14,14,14,14,14,14,5,
5,5,5,5,5,5,5,44,39,39,39,39,39,39,24,24,6,6,6,6,6,6,6,6,6,6,6,6,6,6,25,25,25,29,27,27,27,27,27,27,27,27,14,14,14,5,14,14,5,5,
5,5,5,5,5,5,5,5,39,39,39,39,39,39,39,6,6,6,6,6,6,6,6,6,6,6,6,6,6,6,6,25,29,29,29,27,27,27,27,27,27,27,34,14,5,5,5,5,5,5,
5,5,5,5,5,5,5,5,5,39,39,39,39,39,6,6,6,6,6,6,6,6,6,6,6,6,6,6,6,6,25,29,29,29,29,29,27,27,27,27,15,34,34,5,5,5,5,5,5,5,
5,5,5,5,5,5,5,5,5,5,39,36,39,6,6,6,6,6,6,6,6,6,6,6,6,6,6,6,6,25,25,29,29,29,29,29,45,27,27,15,15,15,5,5,5,5,5,5,5,5,
5,5,5,5,5,5,5,5,5,5,5,36,6,6,6,6,6,6,6,6,6,6,6,6,6,6,6,6,25,25,25,25,29,29,29,45,45,45,15,15,15,5,5,5,5,5,5,5,5,5,
5,5,5,5,5,5,5,5,5,5,36,6,6,6,6,6,6,6,6,6,6,6,6,25,6,6,6,25,25,25,25,25,25,29,45,45,45,15,15,15,5,5,5,5,5,5,5,5,5,5,
5,5,5,5,5,5,5,5,5,36,36,36,6,6,6,6,6,6,6,6,6,6,10,25,25,6,25,25,25,25,25,25,31,45,45,45,15,15,15,15,15,5,5,5,5,5,5,5,5,5,
14,5,35,5,5,5,5,5,36,36,36,36,36,6,6,6,6,6,6,6,6,10,10,10,25,25,25,25,25,25,25,31,12,45,45,15,15,15,15,15,15,15,5,5,5,5,5,5,5,14,
14,15,35,35,5,5,5,35,36,36,36,36,32,36,6,6,6,6,6,10,10,10,10,10,10,25,25,25,25,25,31,12,12,12,12,45,15,15,15,15,15,15,15,5,5,5,5,5,14,14,
15,15,15,35,35,5,35,36,36,36,36,32,32,32,10,6,6,6,10,10,10,10,10,10,10,10,25,25,25,31,12,12,12,12,12,12,47,15,15,15,15,15,15,15,5,5,5,15,15,14,
15,15,15,15,17,35,36,36,36,36,32,32,10,10,10,10,6,10,10,10,10,10,10,10,10,31,31,25,31,12,12,12,12,12,12,12,12,47,15,15,15,15,15,15,15,5,15,15,15,15,
15,15,15,15,15,17,40,36,36,32,32,10,10,10,10,10,10,10,10,10,10,10,10,10,31,31,31,31,12,12,12,12,12,12,12,12,12,12,47,15,15,15,15,15,15,15,15,15,15,15,
15,15,15,15,15,15,17,40,32,32,10,10,10,10,10,10,10,10,10,10,10,10,10,31,31,31,31,12,12,12,12,12,12,12,12,12,12,12,12,26,15,26,26,15,15,15,15,15,15,15,
15,15,15,15,15,15,15,17,32,10,10,10,10,10,10,10,10,10,10,10,10,10,1,38,1,31,31,31,12,12,12,12,12,12,12,12,12,12,12,12,26,26,26,26,15,15,15,15,15,15,
15,15,15,15,15,15,17,17,10,10,10,10,10,10,10,10,10,10,10,10,10,1,1,1,1,1,31,12,12,12,12,12,12,12,12,12,12,12,12,26,26,26,26,26,26,15,15,15,15,15,
15,15,15,15,15,17,17,10,10,10,10,10,10,10,10,10,10,10,10,32,1,1,1,1,1,1,1,12,12,12,12,12,12,12,12,12,12,12,26,26,26,26,26,26,26,26,15,26,15,15,
15,15,15,15,17,17,17,17,10,10,10,10,10,10,10,10,10,10,32,1,1,1,1,1,1,1,1,1,12,12,12,12,12,12,12,12,12,26,26,26,26,26,26,26,26,26,26,26,37,15,
15,15,15,17,17,17,17,17,20,10,10,10,10,10,10,10,10,32,1,1,1,1,1,1,1,1,1,1,1,12,12,12,12,12,12,12,26,26,26,26,26,26,26,26,26,26,26,37,37,17,
17,15,17,17,17,17,17,20,20,20,10,10,10,10,10,32,32,1,1,1,1,1,1,1,1,1,1,1,1,1,12,12,12,12,12,26,26,26,26,26,26,26,26,37,37,26,37,37,16,17,
17,17,17,17,17,17,17,17,20,20,20,10,10,10,40,49,32,32,1,1,1,1,1,1,1,1,1,1,1,12,12,12,12,46,26,26,26,30,30,26,26,26,42,42,37,37,37,16,16,16,
16,17,17,17,16,17,17,20,20,20,20,20,10,40,49,32,32,32,23,1,1,1,1,1,1,1,1,1,1,1,12,12,3,30,46,26,30,30,30,30,26,18,42,42,42,37,16,16,16,16,
16,16,17,16,16,16,20,20,20,20,20,20,20,20,32,32,32,23,23,23,1,1,1,1,1,1,1,1,1,1,1,3,3,3,30,30,30,30,30,30,18,18,18,42,42,16,16,16,16,16,
16,16,16,16,16,16,16,20,20,20,20,20,20,41,19,32,23,23,23,23,23,1,1,1,1,1,1,1,1,1,3,3,3,3,3,30,30,30,30,18,18,18,18,18,16,16,16,16,16,16,
16,16,16,16,16,16,16,16,20,20,20,20,41,19,19,19,23,23,23,23,23,23,1,1,1,1,1,1,1,3,3,3,3,3,3,3,30,30,18,18,18,18,18,16,16,16,16,16,16,16,
16,9,16,16,16,16,16,16,16,20,20,41,19,19,19,19,19,23,23,23,23,23,23,1,1,1,1,1,3,3,3,3,3,3,3,3,3,18,18,18,18,18,18,18,16,16,16,16,16,16,
9,9,9,16,16,16,16,16,16,16,20,19,19,19,19,19,19,19,23,23,23,23,23,23,1,1,1,3,3,3,3,3,3,3,3,3,3,3,18,18,18,18,18,18,18,16,16,16,16,16,
9,9,9,9,16,9,16,16,16,16,16,19,19,19,19,19,19,19,19,23,23,23,23,23,23,1,23,3,3,3,3,3,3,3,3,3,3,18,18,18,18,18,18,18,18,18,16,16,16,9,
9,9,9,9,9,9,9,16,16,16,16,16,19,19,19,19,19,19,19,19,23,23,23,23,11,23,3,3,3,3,3,3,3,3,3,3,13,30,18,18,18,18,18,18,18,18,18,16,9,9,
9,9,9,9,9,2,9,9,16,16,16,19,19,19,19,19,19,19,19,11,23,23,23,11,11,3,3,3,3,3,3,3,3,3,3,13,13,13,30,18,18,18,18,18,18,18,18,9,9,9,
9,9,9,9,2,2,2,9,9,16,19,19,19,19,2,19,19,19,11,11,11,23,11,11,3,3,3,3,3,3,3,3,3,3,13,13,13,13,13,18,18,18,18,18,18,18,9,9,9,9,
9,9,9,2,2,2,2,2,9,9,19,19,19,2,2,2,19,11,11,11,11,11,11,3,3,3,3,3,3,3,3,3,3,3,3,13,13,13,13,8,18,18,18,18,18,9,9,9,9,9,
9,9,2,2,2,2,2,2,2,9,2,19,2,2,2,2,2,11,11,11,11,11,3,3,3,3,3,3,3,3,3,3,3,3,13,13,13,13,8,8,8,18,18,8,18,7,9,7,9,9,
9,2,2,2,2,2,2,2,2,2,2,2,2,2,2,2,2,2,11,11,11,11,11,3,3,3,3,3,3,3,3,3,3,13,13,13,13,8,8,8,8,8,8,8,7,7,7,7,7,9,
2,2,2,2,2,2,2,2,2,2,2,2,2,2,2,2,2,2,2,11,11,11,11,11,3,3,3,3,3,3,3,3,13,13,13,13,8,8,8,8,8,8,8,7,7,7,7,7,7,7,
7,2,2,2,2,2,2,2,2,2,2,2,2,2,2,2,2,2,2,2,11,11,11,11,11,3,3,3,3,3,3,13,13,13,13,8,8,8,8,8,8,8,7,7,7,7,7,7,7,7,
7,7,2,2,2,2,2,2,2,2,2,2,2,2,2,2,2,2,2,11,11,11,11,11,11,11,3,3,3,3,13,13,13,13,8,8,8,8,8,8,8,7,7,7,7,7,7,7,7,7,
7,7,7,2,2,2,2,2,2,2,2,2,2,2,2,2,2,2,11,11,11,11,11,11,11,11,11,3,11,13,13,13,13,13,8,8,8,8,8,8,7,7,7,7,7,7,7,7,7,7,
7,7,48,4,2,2,2,2,2,2,2,2,2,2,2,2,2,33,11,11,11,11,11,11,11,11,11,11,11,11,13,13,13,8,8,8,8,8,8,7,7,7,7,7,7,7,7,7,7,7,
7,28,4,4,4,2,4,2,2,2,2,2,2,2,2,2,33,33,33,11,11,11,11,11,11,11,11,11,11,43,13,13,13,13,8,8,8,8,7,7,7,7,7,7,7,7,7,7,7,7,
28,28,4,4,4,4,4,4,2,2,2,2,2,33,2,33,33,33,21,21,21,11,11,11,11,11,11,11,21,13,13,13,13,13,13,8,8,7,7,7,7,7,7,7,7,7,7,7,7,7,
28,28,22,4,4,4,4,4,4,2,2,2,4,4,33,33,33,21,21,21,21,21,11,11,11,11,11,21,21,21,13,13,13,13,13,13,7,7,7,7,7,7,7,7,7,7,7,7,7,28,
28,22,22,22,4,4,4,4,4,4,2,4,4,4,4,24,21,21,21,21,21,21,21,11,11,11,21,21,21,21,21,13,13,13,13,7,7,7,7,7,7,7,7,7,7,7,28,7,28,28,
22,22,22,22,22,4,4,4,4,4,4,4,4,4,4,4,24,21,21,21,21,21,21,21,11,21,21,21,21,21,21,21,13,13,13,13,7,7,7,7,7,7,7,7,7,28,28,28,28,28,
22,22,22,22,22,22,4,4,4,4,4,4,4,4,4,4,4,24,21,21,21,21,21,21,21,21,21,21,21,21,21,21,21,13,13,13,27,7,7,7,7,7,7,7,28,28,28,28,28,22,
22,22,22,22,22,22,22,4,4,4,4,4,4,4,4,4,4,4,24,21,21,21,21,21,21,21,21,21,21,21,21,21,21,27,13,27,27,27,7,7,7,7,7,28,28,28,28,28,22,22,
22,22,22,22,22,22,22,22,4,4,4,4,4,4,4,4,4,24,24,24,21,21,21,24,43,21,21,21,21,21,21,21,27,27,27,27,27,27,27,7,7,7,28,28,28,28,28,14,22,14,
14,22,22,22,22,22,22,22,22,4,4,4,4,4,4,4,24,24,24,24,24,21,24,24,24,6,21,21,21,21,21,27,27,27,27,27,27,27,27,27,7,28,28,28,28,28,14,14,14,14,
14,5,22,22,22,22,22,22,44,44,4,4,4,4,4,24,24,24,24,24,6,24,24,24,6,6,6,21,21,21,25,25,27,27,27,27,27,27,27,27,27,27,28,28,28,14,14,14,14,14,
