Hased
0_0_2500
50x50
* height *
3,3,3,3,3,3,3,3,3,3,3,3,3,3,3,3,3,3,3,3,3,3,3,3,3,3,3,3,3,3,3,3,3,3,3,3,3,3,3,3,3,3,3,3,3,3,3,3,3,3,
3,3,3,3,3,3,3,3,3,3,3,3,3,3,3,3,3,3,3,3,3,3,3,3,3,3,3,3,3,3,3,3,3,3,3,3,3,3,3,3,3,3,3,3,3,3,3,3,3,3,
3,3,3,3,3,3,3,3,3,3,3,3,3,3,3,3,3,3,3,3,3,3,3,3,3,3,3,3,3,3,3,3,3,3,3,3,3,3,3,3,3,3,3,3,3,3,3,3,3,3,
3,3,3,3,3,3,3,3,3,3,3,3,3,3,3,3,3,3,3,3,3,3,3,3,3,3,3,3,3,3,3,3,3,3,3,3,3,3,3,3,3,3,3,3,3,3,3,3,3,3,
3,3,3,3,3,3,3,3,3,3,3,3,3,3,3,3,3,3,3,3,3,3,3,3,3,3,3,3,3,3,3,3,3,3,3,3,3,3,3,3,3,3,3,3,3,3,3,3,3,3,
3,3,3,3,3,3,3,3,3,3,3,3,3,3,3,3,3,3,3,3,3,3,3,3,3,3,3,3,3,3,3,3,3,3,3,3,3,3,3,3,3,3,3,3,3,3,3,3,3,3,
3,3,3,3,3,3,3,3,3,3,3,3,3,3,3,3,3,3,3,3,3,3,3,3,3,3,3,3,3,3,3,3,3,3,3,3,3,3,3,3,3,3,3,3,3,3,3,3,3,3,
3,3,3,3,3,3,3,3,3,3,3,3,3,3,3,3,3,3,3,3,3,3,3,3,3,3,3,3,3,3,3,3,3,3,3,3,3,3,3,3,3,3,3,3,3,3,3,3,3,3,
3,3,3,3,3,3,3,3,3,3,3,3,3,3,3,3,3,3,3,3,3,3,3,3,3,3,3,3,3,3,3,3,3,3,3,3,3,3,3,3,3,3,3,3,3,3,3,3,3,3,
3,3,3,3,3,3,3,3,3,3,3,3,3,3,3,3,3,3,3,3,3,3,3,3,3,3,3,3,3,3,3,3,3,3,3,3,3,3,3,3,3,3,3,3,3,3,3,3,3,3,
3,3,3,3,3,3,3,3,3,3,3,3,3,3,3,3,3,3,3,3,3,3,3,3,3,3,3,3,3,3,3,3,3,3,3,3,3,3,3,3,3,3,3,3,3,3,3,3,3,3,
3,3,3,3,3,3,3,3,3,3,3,3,3,3,3,3,3,3,3,3,3,3,3,3,3,3,3,3,3,3,3,3,3,3,3,3,3,3,3,3,3,3,3,3,3,3,3,3,3,3,
3,3,3,3,3,3,3,3,3,3,3,3,3,3,3,3,3,3,3,3,3,3,3,3,3,3,3,3,3,3,3,3,3,3,3,3,3,3,3,3,3,3,3,3,3,3,3,3,3,3,
3,3,3,3,3,3,3,3,3,3,3,3,3,3,3,3,3,3,3,3,3,3,3,3,3,3,3,3,3,3,3,3,3,3,3,3,3,3,3,3,3,3,3,3,3,3,3,3,3,3,
3,3,3,3,3,3,3,3,3,3,3,3,3,3,3,3,3,3,3,3,3,3,3,3,3,3,3,3,3,3,3,3,3,3,3,3,3,3,3,3,3,3,3,3,3,3,3,3,3,3,
3,3,3,3,3,3,3,3,3,3,3,3,3,3,3,3,3,3,3,3,3,3,3,3,3,3,3,3,3,3,3,3,3,3,3,3,3,3,3,3,3,3,3,3,3,3,3,3,3,3,
3,3,3,3,3,3,3,3,3,3,3,3,3,3,3,3,3,3,3,3,3,3,3,3,3,3,3,3,3,3,3,3,3,3,3,3,3,3,3,3,3,3,3,3,3,3,3,3,3,3,
3,3,3,3,3,3,3,3,3,3,3,3,3,3,3,3,3,3,3,3,3,3,3,3,3,3,3,3,3,3,3,3,3,3,3,3,3,3,3,3,3,3,3,3,3,3,3,3,3,3,
3,3,3,3,3,3,3,3,3,3,3,3,3,3,3,3,3,3,3,3,3,3,3,3,3,3,3,3,3,3,3,3,3,3,3,3,3,3,3,3,3,3,3,3,3,3,3,3,3,3,
3,3,3,3,3,3,3,3,3,3,3,3,3,3,3,3,3,3,3,3,3,3,3,3,3,3,3,3,3,3,3,3,3,3,3,3,3,3,3,3,3,3,3,3,3,3,3,3,3,3,
3,3,3,3,3,3,3,3,3,3,3,3,3,3,3,3,3,3,3,3,3,3,3,3,3,3,3,3,3,3,3,3,3,3,3,3,3,3,3,3,3,3,3,3,3,3,3,3,3,3,
3,3,3,3,3,3,3,3,3,3,3,3,3,3,3,3,3,3,3,3,3,3,3,3,3,83,3,3,3,3,3,3,3,3,3,3,3,3,3,3,3,3,3,3,3,3,3,3,3,3,
3,3,3,3,3,3,3,3,3,3,3,3,3,3,3,3,3,3,3,3,3,3,3,3,57,91,83,3,3,3,3,3,3,3,3,3,3,3,3,3,3,3,3,3,3,3,3,3,3,3,
3,3,3,3,3,3,3,3,3,3,3,3,3,3,3,3,3,3,3,3,3,3,3,81,98,101,89,96,3,3,3,3,3,3,3,3,3,3,3,3,3,3,3,3,3,3,3,3,3,3,
3,3,3,3,3,3,3,3,3,3,3,3,3,3,3,3,3,3,3,3,3,3,69,75,73,71,77,72,78,3,3,3,3,3,3,3,3,3,3,3,3,3,3,3,3,3,3,3,3,3,
3,3,3,3,3,3,3,3,3,3,3,3,3,3,3,3,3,3,3,3,3,93,70,186,60,98,85,87,96,58,3,3,3,3,3,3,3,3,3,3,3,3,3,3,3,3,3,3,3,3,
3,3,3,3,3,3,3,3,3,3,3,3,3,3,3,3,3,3,3,3,3,3,121,135,135,96,96,70,56,3,3,3,3,3,3,3,3,3,3,3,3,3,3,3,3,3,3,3,3,3,
3,3,3,3,3,3,3,3,3,3,3,3,3,3,3,3,3,3,3,3,93,81,54,156,158,160,61,100,3,3,3,3,3,3,3,3,3,3,3,3,3,3,3,3,3,3,3,3,3,3,
3,3,3,3,3,3,3,3,3,3,3,3,3,3,3,3,3,3,3,59,86,62,82,68,157,74,58,3,3,3,3,3,3,3,3,3,3,3,3,3,3,3,3,3,3,3,3,3,3,3,
3,3,3,3,3,3,3,3,3,3,3,3,3,3,3,3,3,3,74,99,62,56,100,94,3,59,3,3,3,3,3,3,3,3,3,3,3,3,3,3,3,3,3,3,3,3,3,3,3,3,
3,3,3,3,3,3,3,3,3,3,3,3,3,57,3,3,3,3,3,74,95,67,3,3,3,3,3,3,3,3,3,3,3,3,3,3,73,3,3,3,3,3,3,3,3,3,3,3,3,3,
3,3,3,3,3,3,3,3,3,3,3,3,63,83,71,3,3,3,3,3,55,3,3,3,3,3,3,3,3,3,3,3,3,3,3,98,67,60,3,3,3,3,3,3,3,3,3,3,3,3,
3,3,3,3,3,3,3,3,3,3,3,91,53,99,59,53,73,3,3,3,3,3,3,3,3,3,3,3,3,3,3,3,3,3,83,80,62,86,53,3,3,3,3,3,3,3,3,3,3,3,
3,3,3,3,3,3,3,3,3,3,67,58,92,65,90,160,181,72,3,3,3,3,3,3,3,3,3,3,3,3,3,3,3,100,96,71,82,84,101,64,3,3,3,3,3,3,3,3,3,3,
3,3,3,3,3,3,3,3,3,79,100,96,67,58,174,145,144,181,95,3,3,3,3,3,3,3,3,3,3,3,3,3,55,66,81,91,55,61,73,55,61,3,3,3,3,3,3,3,3,3,
3,3,3,3,3,3,3,3,97,53,84,93,96,60,61,143,157,156,67,3,3,3,3,3,3,3,3,3,3,3,3,60,53,56,82,140,58,101,55,64,95,67,3,3,3,3,3,3,3,3,
3,3,3,3,3,3,3,54,74,95,62,98,82,83,53,63,196,53,77,89,3,3,3,3,3,3,3,3,3,3,92,84,96,77,186,144,137,85,101,72,87,70,89,3,3,3,3,3,3,3,
3,3,3,3,3,3,86,86,97,101,58,85,84,80,158,96,100,91,97,55,97,3,3,3,3,3,3,3,3,82,89,66,67,115,147,152,150,144,89,65,84,74,88,80,3,3,3,3,3,3,
3,3,3,3,3,54,54,63,90,60,98,80,53,151,151,171,96,75,73,81,67,81,3,3,3,3,3,3,70,89,72,85,86,63,186,161,153,98,61,57,75,93,96,95,100,3,3,3,3,3,
3,3,3,3,3,3,84,76,54,91,54,94,136,169,135,126,187,89,97,82,102,3,3,3,3,3,3,3,3,100,99,90,96,72,88,158,102,56,80,61,84,91,62,77,3,3,3,3,3,3,
3,3,3,3,3,3,3,69,93,86,58,97,60,119,148,197,93,91,75,84,3,3,3,3,3,3,3,3,3,3,63,63,68,76,86,86,187,96,99,66,87,68,55,3,3,3,3,3,3,3,
3,3,3,3,3,3,3,3,57,57,77,100,64,72,157,68,82,100,93,3,3,3,3,3,3,3,3,3,3,3,3,63,99,65,85,135,188,141,92,57,79,59,3,3,3,3,3,3,3,3,
3,3,3,3,3,3,3,3,3,82,100,82,89,67,98,53,96,62,3,3,3,3,3,3,3,3,3,3,3,3,3,3,96,101,149,162,182,161,175,94,73,3,3,3,3,3,3,3,3,3,
3,3,3,3,3,3,3,3,3,3,74,75,65,56,69,97,102,3,3,3,3,3,3,3,3,3,3,3,3,3,3,3,3,66,85,145,149,160,81,65,3,3,3,3,3,3,3,3,3,3,
3,3,3,3,3,3,3,3,3,3,3,78,80,76,80,64,3,3,3,3,3,3,3,3,3,3,3,3,3,3,3,3,3,3,55,89,144,63,64,3,3,3,3,3,3,3,3,3,3,3,
3,3,3,3,3,3,3,3,3,3,3,3,78,75,57,3,3,3,3,3,3,3,3,3,3,3,3,3,3,3,3,3,3,3,3,88,90,57,3,3,3,3,3,3,3,3,3,3,3,3,
3,3,3,3,3,3,3,3,3,3,3,3,3,76,3,3,3,3,3,3,3,3,3,3,3,3,3,3,3,3,3,3,3,3,3,3,70,3,3,3,3,3,3,3,3,3,3,3,3,3,
3,3,3,3,3,3,3,3,3,3,3,3,3,3,3,3,3,3,3,3,3,3,3,3,3,3,3,3,3,3,3,3,3,3,3,3,3,3,3,3,3,3,3,3,3,3,3,3,3,3,
3,3,3,3,3,3,3,3,3,3,3,3,3,3,3,3,3,3,3,3,3,3,3,3,3,3,3,3,3,3,3,3,3,3,3,3,3,3,3,3,3,3,3,3,3,3,3,3,3,3,
3,3,3,3,3,3,3,3,3,3,3,3,3,3,3,3,3,3,3,3,3,3,3,3,3,3,3,3,3,3,3,3,3,3,3,3,3,3,3,3,3,3,3,3,3,3,3,3,3,3,
* depth *
0.00,0.00,0.00,0.00,0.00,0.00,0.00,0.00,0.00,0.00,0.00,0.00,0.00,0.00,0.00,0.00,0.00,0.00,0.00,0.00,0.00,0.00,0.00,0.00,0.00,0.00,0.00,0.00,0.00,0.00,0.00,0.00,0.00,0.00,0.00,0.00,0.00,0.00,0.00,0.00,0.00,0.00,0.00,0.00,0.00,0.00,0.00,0.00,0.00,0.00,
0.00,0.00,0.00,0.00,0.00,0.00,0.00,0.00,0.00,0.00,0.00,0.00,0.00,0.00,0.00,0.00,0.00,0.00,0.00,0.00,0.00,0.00,0.00,0.00,0.00,0.00,0.00,0.00,0.00,0.00,0.00,0.00,0.00,0.00,0.00,0.00,0.00,0.00,0.00,0.00,0.00,0.00,0.00,0.00,0.00,0.00,0.00,0.00,0.00,0.00,
0.00,0.00,0.00,0.00,0.00,0.00,0.00,0.00,0.00,0.00,0.00,0.00,0.00,0.00,0.00,0.00,0.00,0.00,0.00,0.00,0.00,0.00,0.00,0.00,0.00,0.00,0.00,0.00,0.00,0.00,0.00,0.00,0.00,0.00,0.00,0.00,0.00,0.00,0.00,0.00,0.00,0.00,0.00,0.00,0.00,0.00,0.00,0.00,0.00,0.00,
0.00,0.00,0.00,0.00,0.00,0.00,0.00,0.00,0.00,0.00,0.00,0.00,0.00,0.00,0.00,0.00,0.00,0.00,0.00,0.00,0.00,0.00,0.00,0.00,0.00,0.00,0.00,0.00,0.00,0.00,0.00,0.00,0.00,0.00,0.00,0.00,0.00,0.00,0.00,0.00,0.00,0.00,0.00,0.00,0.00,0.00,0.00,0.00,0.00,0.00,
0.00,0.00,0.00,0.00,0.00,0.00,0.00,0.00,0.00,0.00,0.00,0.00,0.00,0.00,0.00,0.00,0.00,0.00,0.00,0.00,0.00,0.00,0.00,0.00,0.00,0.00,0.00,0.00,0.00,0.00,0.00,0.00,0.00,0.00,0.00,0.00,0.00,0.00,0.00,0.00,0.00,0.00,0.00,0.00,0.00,0.00,0.00,0.00,0.00,0.00,
0.00,0.00,0.00,0.00,0.00,0.00,0.00,0.00,0.00,0.00,0.00,0.00,0.00,0.00,0.00,0.00,0.00,0.00,0.00,0.00,0.00,0.00,0.00,0.00,0.00,0.00,0.00,0.00,0.00,0.00,0.00,0.00,0.00,0.00,0.00,0.00,0.00,0.00,0.00,0.00,0.00,0.00,0.00,0.00,0.00,0.00,0.00,0.00,0.00,0.00,
0.00,0.00,0.00,0.00,0.00,0.00,0.00,0.00,0.00,0.00,0.00,0.00,0.00,0.00,0.00,0.00,0.00,0.00,0.00,0.00,0.00,0.00,0.00,0.00,0.00,0.00,0.00,0.00,0.00,0.00,0.00,0.00,0.00,0.00,0.00,0.00,0.00,0.00,0.00,0.00,0.00,0.00,0.00,0.00,0.00,0.00,0.00,0.00,0.00,0.00,
0.00,0.00,0.00,0.00,0.00,0.00,0.00,0.00,0.00,0.00,0.00,0.00,0.00,0.00,0.00,0.00,0.00,0.00,0.00,0.00,0.00,0.00,0.00,0.00,0.00,0.00,0.00,0.00,0.00,0.00,0.00,0.00,0.00,0.00,0.00,0.00,0.00,0.00,0.00,0.00,0.00,0.00,0.00,0.00,0.00,0.00,0.00,0.00,0.00,0.00,
0.00,0.00,0.00,0.00,0.00,0.00,0.00,0.00,0.00,0.00,0.00,0.00,0.00,0.00,0.00,0.00,0.00,0.00,0.00,0.00,0.00,0.00,0.00,0.00,0.00,0.00,0.00,0.00,0.00,0.00,0.00,0.00,0.00,0.00,0.00,0.00,0.00,0.00,0.00,0.00,0.00,0.00,0.00,0.00,0.00,0.00,0.00,0.00,0.00,0.00,
0.00,0.00,0.00,0.00,0.00,0.00,0.00,0.00,0.00,0.00,0.00,0.00,0.00,0.00,0.00,0.00,0.00,0.00,0.00,0.00,0.00,0.00,0.00,0.00,0.00,0.00,0.00,0.00,0.00,0.00,0.00,0.00,0.00,0.00,0.00,0.00,0.00,0.00,0.00,0.00,0.00,0.00,0.00,0.00,0.00,0.00,0.00,0.00,0.00,0.00,
0.00,0.00,0.00,0.00,0.00,0.00,0.00,0.00,0.00,0.00,0.00,0.00,0.00,0.00,0.00,0.00,0.00,0.00,0.00,0.00,0.00,0.00,0.00,0.00,0.00,0.00,0.00,0.00,0.00,0.00,0.00,0.00,0.00,0.00,0.00,0.00,0.00,0.00,0.00,0.00,0.00,0.00,0.00,0.00,0.00,0.00,0.00,0.00,0.00,0.00,
0.00,0.00,0.00,0.00,0.00,0.00,0.00,0.00,0.00,0.00,0.00,0.00,0.00,0.00,0.00,0.00,0.00,0.00,0.00,0.00,0.00,0.00,0.00,0.00,0.00,0.00,0.00,0.00,0.00,0.00,0.00,0.00,0.00,0.00,0.00,0.00,0.00,0.00,0.00,0.00,0.00,0.00,0.00,0.00,0.00,0.00,0.00,0.00,0.00,0.00,
0.00,0.00,0.00,0.00,0.00,0.00,0.00,0.00,0.00,0.00,0.00,0.00,0.00,0.00,0.00,0.00,0.00,0.00,0.00,0.00,0.00,0.00,0.00,0.00,0.00,0.00,0.00,0.00,0.00,0.00,0.00,0.00,0.00,0.00,0.00,0.00,0.00,0.00,0.00,0.00,0.00,0.00,0.00,0.00,0.00,0.00,0.00,0.00,0.00,0.00,
0.00,0.00,0.00,0.00,0.00,0.00,0.00,0.00,0.00,0.00,0.00,0.00,0.00,0.00,0.00,0.00,0.00,0.00,0.00,0.00,0.00,0.00,0.00,0.00,0.00,0.00,0.00,0.00,0.00,0.00,0.00,0.00,0.00,0.00,0.00,0.00,0.00,0.00,0.00,0.00,0.00,0.00,0.00,0.00,0.00,0.00,0.00,0.00,0.00,0.00,
0.00,0.00,0.00,0.00,0.00,0.00,0.00,0.00,0.00,0.00,0.00,0.00,0.00,0.00,0.00,0.00,0.00,0.00,0.00,0.00,0.00,0.00,0.00,0.00,0.00,0.00,0.00,0.00,0.00,0.00,0.00,0.00,0.00,0.00,0.00,0.00,0.00,0.00,0.00,0.00,0.00,0.00,0.00,0.00,0.00,0.00,0.00,0.00,0.00,0.00,
0.00,0.00,0.00,0.00,0.00,0.00,0.00,0.00,0.00,0.00,0.00,0.00,0.00,0.00,0.00,0.00,0.00,0.00,0.00,0.00,0.00,0.00,0.00,0.00,0.00,0.00,0.00,0.00,0.00,0.00,0.00,0.00,0.00,0.00,0.00,0.00,0.00,0.00,0.00,0.00,0.00,0.00,0.00,0.00,0.00,0.00,0.00,0.00,0.00,0.00,
0.00,0.00,0.00,0.00,0.00,0.00,0.00,0.00,0.00,0.00,0.00,0.00,0.00,0.00,0.00,0.00,0.00,0.00,0.00,0.00,0.00,0.00,0.00,0.00,0.00,0.00,0.00,0.00,0.00,0.00,0.00,0.00,0.00,0.00,0.00,0.00,0.00,0.00,0.00,0.00,0.00,0.00,0.00,0.00,0.00,0.00,0.00,0.00,0.00,0.00,
0.00,0.00,0.00,0.00,0.00,0.00,0.00,0.00,0.00,0.00,0.00,0.00,0.00,0.00,0.00,0.00,0.00,0.00,0.00,0.00,0.00,0.00,0.00,0.00,0.00,0.00,0.00,0.00,0.00,0.00,0.00,0.00,0.00,0.00,0.00,0.00,0.00,0.00,0.00,0.00,0.00,0.00,0.00,0.00,0.00,0.00,0.00,0.00,0.00,0.00,
0.00,0.00,0.00,0.00,0.00,0.00,0.00,0.00,0.00,0.00,0.00,0.00,0.00,0.00,0.00,0.00,0.00,0.00,0.00,0.00,0.00,0.00,0.00,0.00,0.00,0.00,0.00,0.00,0.00,0.00,0.00,0.00,0.00,0.00,0.00,0.00,0.00,0.00,0.00,0.00,0.00,0.00,0.00,0.00,0.00,0.00,0.00,0.00,0.00,0.00,
0.00,0.00,0.00,0.00,0.00,0.00,0.00,0.00,0.00,0.00,0.00,0.00,0.00,0.00,0.00,0.00,0.00,0.00,0.00,0.00,0.00,0.00,0.00,0.00,0.00,0.00,0.00,0.00,0.00,0.00,0.00,0.00,0.00,0.00,0.00,0.00,0.00,0.00,0.00,0.00,0.00,0.00,0.00,0.00,0.00,0.00,0.00,0.00,0.00,0.00,
0.00,0.00,0.00,0.00,0.00,0.00,0.00,0.00,0.00,0.00,0.00,0.00,0.00,0.00,0.00,0.00,0.00,0.00,0.00,0.00,0.00,0.00,0.00,0.00,0.00,0.00,0.00,0.00,0.00,0.00,0.00,0.00,0.00,0.00,0.00,0.00,0.00,0.00,0.00,0.00,0.00,0.00,0.00,0.00,0.00,0.00,0.00,0.00,0.00,0.00,
0.00,0.00,0.00,0.00,0.00,0.00,0.00,0.00,0.00,0.00,0.00,0.00,0.00,0.00,0.00,0.00,0.00,0.00,0.00,0.00,0.00,0.00,0.00,0.00,0.00,0.00,0.00,0.00,0.00,0.00,0.00,0.00,0.00,0.00,0.00,0.00,0.00,0.00,0.00,0.00,0.00,0.00,0.00,0.00,0.00,0.00,0.00,0.00,0.00,0.00,
0.00,0.00,0.00,0.00,0.00,0.00,0.00,0.00,0.00,0.00,0.00,0.00,0.00,0.00,0.00,0.00,0.00,0.00,0.00,0.00,0.00,0.00,0.00,0.00,0.00,0.00,0.00,0.00,0.00,0.00,0.00,0.00,0.00,0.00,0.00,0.00,0.00,0.00,0.00,0.00,0.00,0.00,0.00,0.00,0.00,0.00,0.00,0.00,0.00,0.00,
0.00,0.00,0.00,0.00,0.00,0.00,0.00,0.00,0.00,0.00,0.00,0.00,0.00,0.00,0.00,0.00,0.00,0.00,0.00,0.00,0.00,0.00,0.00,0.00,0.00,0.00,0.00,0.00,0.00,0.00,0.00,0.00,0.00,0.00,0.00,0.00,0.00,0.00,0.00,0.00,0.00,0.00,0.00,0.00,0.00,0.00,0.00,0.00,0.00,0.00,
0.00,0.00,0.00,0.00,0.00,0.00,0.00,0.00,0.00,0.00,0.00,0.00,0.00,0.00,0.00,0.00,0.00,0.00,0.00,0.00,0.00,0.00,0.00,0.00,0.00,0.00,0.00,0.00,0.00,0.00,0.00,0.00,0.00,0.00,0.00,0.00,0.00,0.00,0.00,0.00,0.00,0.00,0.00,0.00,0.00,0.00,0.00,0.00,0.00,0.00,
0.00,0.00,0.00,0.00,0.00,0.00,0.00,0.00,0.00,0.00,0.00,0.00,0.00,0.00,0.00,0.00,0.00,0.00,0.00,0.00,0.00,0.00,0.00,0.00,0.00,0.00,0.00,0.00,0.00,0.00,0.00,0.00,0.00,0.00,0.00,0.00,0.00,0.00,0.00,0.00,0.00,0.00,0.00,0.00,0.00,0.00,0.00,0.00,0.00,0.00,
0.00,0.00,0.00,0.00,0.00,0.00,0.00,0.00,0.00,0.00,0.00,0.00,0.00,0.00,0.00,0.00,0.00,0.00,0.00,0.00,0.00,0.00,0.00,0.00,0.00,0.00,0.00,0.00,0.00,0.00,0.00,0.00,0.00,0.00,0.00,0.00,0.00,0.00,0.00,0.00,0.00,0.00,0.00,0.00,0.00,0.00,0.00,0.00,0.00,0.00,
0.00,0.00,0.00,0.00,0.00,0.00,0.00,0.00,0.00,0.00,0.00,0.00,0.00,0.00,0.00,0.00,0.00,0.00,0.00,0.00,0.00,0.00,0.00,0.00,0.00,0.00,0.00,0.00,0.00,0.00,0.00,0.00,0.00,0.00,0.00,0.00,0.00,0.00,0.00,0.00,0.00,0.00,0.00,0.00,0.00,0.00,0.00,0.00,0.00,0.00,
0.00,0.00,0.00,0.00,0.00,0.00,0.00,0.00,0.00,0.00,0.00,0.00,0.00,0.00,0.00,0.00,0.00,0.00,0.00,0.00,0.00,0.00,0.00,0.00,0.00,0.00,0.00,0.00,0.00,0.00,0.00,0.00,0.00,0.00,0.00,0.00,0.00,0.00,0.00,0.00,0.00,0.00,0.00,0.00,0.00,0.00,0.00,0.00,0.00,0.00,
0.00,0.00,0.00,0.00,0.00,0.00,0.00,0.00,0.00,0.00,0.00,0.00,0.00,0.00,0.00,0.00,0.00,0.00,0.00,0.00,0.00,0.00,0.00,0.00,0.00,0.00,0.00,0.00,0.00,0.00,0.00,0.00,0.00,0.00,0.00,0.00,0.00,0.00,0.00,0.00,0.00,0.00,0.00,0.00,0.00,0.00,0.00,0.00,0.00,0.00,
0.00,0.00,0.00,0.00,0.00,0.00,0.00,0.00,0.00,0.00,0.00,0.00,0.00,0.00,0.00,0.00,0.00,0.00,0.00,0.00,0.00,0.00,0.00,0.00,0.00,0.00,0.00,0.00,0.00,0.00,0.00,0.00,0.00,0.00,0.00,0.00,0.00,0.00,0.00,0.00,0.00,0.00,0.00,0.00,0.00,0.00,0.00,0.00,0.00,0.00,
0.00,0.00,0.00,0.00,0.00,0.00,0.00,0.00,0.00,0.00,0.00,0.00,0.00,0.00,0.00,0.00,0.00,0.00,0.00,0.00,0.00,0.00,0.00,0.00,0.00,0.00,0.00,0.00,0.00,0.00,0.00,0.00,0.00,0.00,0.00,0.00,0.00,0.00,0.00,0.00,0.00,0.00,0.00,0.00,0.00,0.00,0.00,0.00,0.00,0.00,
0.00,0.00,0.00,0.00,0.00,0.00,0.00,0.00,0.00,0.00,0.00,0.00,0.00,0.00,0.00,0.00,0.00,0.00,0.00,0.00,0.00,0.00,0.00,0.00,0.00,0.00,0.00,0.00,0.00,0.00,0.00,0.00,0.00,0.00,0.00,0.00,0.00,0.00,0.00,0.00,0.00,0.00,0.00,0.00,0.00,0.00,0.00,0.00,0.00,0.00,
0.00,0.00,0.00,0.00,0.00,0.00,0.00,0.00,0.00,0.00,0.00,0.00,0.00,0.00,0.00,0.00,0.00,0.00,0.00,0.00,0.00,0.00,0.00,0.00,0.00,0.00,0.00,0.00,0.00,0.00,0.00,0.00,0.00,0.00,0.00,0.00,0.00,0.00,0.00,0.00,0.00,0.00,0.00,0.00,0.00,0.00,0.00,0.00,0.00,0.00,
0.00,0.00,0.00,0.00,0.00,0.00,0.00,0.00,0.00,0.00,0.00,0.00,0.00,0.00,0.00,0.00,0.00,0.00,0.00,0.00,0.00,0.00,0.00,0.00,0.00,0.00,0.00,0.00,0.00,0.00,0.00,0.00,0.00,0.00,0.00,0.00,0.00,0.00,0.00,0.00,0.00,0.00,0.00,0.00,0.00,0.00,0.00,0.00,0.00,0.00,
0.00,0.00,0.00,0.00,0.00,0.00,0.00,0.00,0.00,0.00,0.00,0.00,0.00,0.00,0.00,0.00,0.00,0.00,0.00,0.00,0.00,0.00,0.00,0.00,0.00,0.00,0.00,0.00,0.00,0.00,0.00,0.00,0.00,0.00,0.00,0.00,0.00,0.00,0.00,0.00,0.00,0.00,0.00,0.00,0.00,0.00,0.00,0.00,0.00,0.00,
0.00,0.00,0.00,0.00,0.00,0.00,0.00,0.00,0.00,0.00,0.00,0.00,0.00,0.00,0.00,0.00,0.00,0.00,0.00,0.00,0.00,0.00,0.00,0.00,0.00,0.00,0.00,0.00,0.00,0.00,0.00,0.00,0.00,0.00,0.00,0.00,0.00,0.00,0.00,0.00,0.00,0.00,0.00,0.00,0.00,0.00,0.00,0.00,0.00,0.00,
0.00,0.00,0.00,0.00,0.00,0.00,0.00,0.00,0.00,0.00,0.00,0.00,0.00,0.00,0.00,0.00,0.00,0.00,0.00,0.00,0.00,0.00,0.00,0.00,0.00,0.00,0.00,0.00,0.00,0.00,0.00,0.00,0.00,0.00,0.00,0.00,0.00,0.00,0.00,0.00,0.00,0.00,0.00,0.00,0.00,0.00,0.00,0.00,0.00,0.00,
0.00,0.00,0.00,0.00,0.00,0.00,0.00,0.00,0.00,0.00,0.00,0.00,0.00,0.00,0.00,0.00,0.00,0.00,0.00,0.00,0.00,0.00,0.00,0.00,0.00,0.00,0.00,0.00,0.00,0.00,0.00,0.00,0.00,0.00,0.00,0.00,0.00,0.00,0.00,0.00,0.00,0.00,0.00,0.00,0.00,0.00,0.00,0.00,0.00,0.00,
0.00,0.00,0.00,0.00,0.00,0.00,0.00,0.00,0.00,0.00,0.00,0.00,0.00,0.00,0.00,0.00,0.00,0.00,0.00,0.00,0.00,0.00,0.00,0.00,0.00,0.00,0.00,0.00,0.00,0.00,0.00,0.00,0.00,0.00,0.00,0.00,0.00,0.00,0.00,0.00,0.00,0.00,0.00,0.00,0.00,0.00,0.00,0.00,0.00,0.00,
0.00,0.00,0.00,0.00,0.00,0.00,0.00,0.00,0.00,0.00,0.00,0.00,0.00,0.00,0.00,0.00,0.00,0.00,0.00,0.00,0.00,0.00,0.00,0.00,0.00,0.00,0.00,0.00,0.00,0.00,0.00,0.00,0.00,0.00,0.00,0.00,0.00,0.00,0.00,0.00,0.00,0.00,0.00,0.00,0.00,0.00,0.00,0.00,0.00,0.00,
0.00,0.00,0.00,0.00,0.00,0.00,0.00,0.00,0.00,0.00,0.00,0.00,0.00,0.00,0.00,0.00,0.00,0.00,0.00,0.00,0.00,0.00,0.00,0.00,0.00,0.00,0.00,0.00,0.00,0.00,0.00,0.00,0.00,0.00,0.00,0.00,0.00,0.00,0.00,0.00,0.00,0.00,0.00,0.00,0.00,0.00,0.00,0.00,0.00,0.00,
0.00,0.00,0.00,0.00,0.00,0.00,0.00,0.00,0.00,0.00,0.00,0.00,0.00,0.00,0.00,0.00,0.00,0.00,0.00,0.00,0.00,0.00,0.00,0.00,0.00,0.00,0.00,0.00,0.00,0.00,0.00,0.00,0.00,0.00,0.00,0.00,0.00,0.00,0.00,0.00,0.00,0.00,0.00,0.00,0.00,0.00,0.00,0.00,0.00,0.00,
0.00,0.00,0.00,0.00,0.00,0.00,0.00,0.00,0.00,0.00,0.00,0.00,0.00,0.00,0.00,0.00,0.00,0.00,0.00,0.00,0.00,0.00,0.00,0.00,0.00,0.00,0.00,0.00,0.00,0.00,0.00,0.00,0.00,0.00,0.00,0.00,0.00,0.00,0.00,0.00,0.00,0.00,0.00,0.00,0.00,0.00,0.00,0.00,0.00,0.00,
0.00,0.00,0.00,0.00,0.00,0.00,0.00,0.00,0.00,0.00,0.00,0.00,0.00,0.00,0.00,0.00,0.00,0.00,0.00,0.00,0.00,0.00,0.00,0.00,0.00,0.00,0.00,0.00,0.00,0.00,0.00,0.00,0.00,0.00,0.00,0.00,0.00,0.00,0.00,0.00,0.00,0.00,0.00,0.00,0.00,0.00,0.00,0.00,0.00,0.00,
0.00,0.00,0.00,0.00,0.00,0.00,0.00,0.00,0.00,0.00,0.00,0.00,0.00,0.00,0.00,0.00,0.00,0.00,0.00,0.00,0.00,0.00,0.00,0.00,0.00,0.00,0.00,0.00,0.00,0.00,0.00,0.00,0.00,0.00,0.00,0.00,0.00,0.00,0.00,0.00,0.00,0.00,0.00,0.00,0.00,0.00,0.00,0.00,0.00,0.00,
0.00,0.00,0.00,0.00,0.00,0.00,0.00,0.00,0.00,0.00,0.00,0.00,0.00,0.00,0.00,0.00,0.00,0.00,0.00,0.00,0.00,0.00,0.00,0.00,0.00,0.00,0.00,0.00,0.00,0.00,0.00,0.00,0.00,0.00,0.00,0.00,0.00,0.00,0.00,0.00,0.00,0.00,0.00,0.00,0.00,0.00,0.00,0.00,0.00,0.00,
0.00,0.00,0.00,0.00,0.00,0.00,0.00,0.00,0.00,0.00,0.00,0.00,0.00,0.00,0.00,0.00,0.00,0.00,0.00,0.00,0.00,0.00,0.00,0.00,0.00,0.00,0.00,0.00,0.00,0.00,0.00,0.00,0.00,0.00,0.00,0.00,0.00,0.00,0.00,0.00,0.00,0.00,0.00,0.00,0.00,0.00,0.00,0.00,0.00,0.00,
0.00,0.00,0.00,0.00,0.00,0.00,0.00,0.00,0.00,0.00,0.00,0.00,0.00,0.00,0.00,0.00,0.00,0.00,0.00,0.00,0.00,0.00,0.00,0.00,0.00,0.00,0.00,0.00,0.00,0.00,0.00,0.00,0.00,0.00,0.00,0.00,0.00,0.00,0.00,0.00,0.00,0.00,0.00,0.00,0.00,0.00,0.00,0.00,0.00,0.00,
0.00,0.00,0.00,0.00,0.00,0.00,0.00,0.00,0.00,0.00,0.00,0.00,0.00,0.00,0.00,0.00,0.00,0.00,0.00,0.00,0.00,0.00,0.00,0.00,0.00,0.00,0.00,0.00,0.00,0.00,0.00,0.00,0.00,0.00,0.00,0.00,0.00,0.00,0.00,0.00,0.00,0.00,0.00,0.00,0.00,0.00,0.00,0.00,0.00,0.00,
* tectonic *
8,8,26,26,26,26,3,3,3,3,3,18,18,18,18,18,18,18,18,18,7,7,7,7,7,7,7,7,7,7,5,5,5,5,5,5,5,5,5,5,5,8,8,8,8,8,8,8,8,8,
8,8,8,71,26,3,3,3,3,3,3,3,18,18,18,18,18,18,18,7,7,7,7,7,7,7,7,7,7,7,5,5,5,5,5,5,5,5,5,5,5,5,8,8,8,8,8,8,8,8,
8,8,71,71,3,3,3,3,3,3,3,3,3,3,18,18,18,18,7,7,7,7,7,7,7,7,7,7,7,5,5,5,5,5,5,5,5,5,5,5,5,8,8,8,8,8,8,8,8,8,
8,71,71,3,3,3,3,3,3,3,3,3,3,3,3,28,18,66,66,7,7,7,7,7,7,7,7,7,5,5,5,5,5,5,5,5,5,5,5,5,104,8,8,8,8,8,8,8,8,8,
71,71,71,71,3,3,3,3,3,3,3,3,3,3,3,3,28,12,66,66,7,7,7,7,7,7,7,5,5,5,5,5,5,5,5,5,5,5,5,104,104,104,8,8,8,8,8,8,8,8,
10,71,4,71,28,3,3,3,3,3,3,3,3,3,3,3,3,12,12,47,12,7,7,7,7,7,7,7,5,5,5,5,5,5,2,5,5,5,104,104,104,104,104,8,8,8,8,8,8,10,
10,4,4,4,32,89,3,3,3,3,3,3,3,3,3,3,3,3,12,12,12,12,7,7,7,7,7,7,7,5,5,5,5,2,2,2,5,104,104,104,104,104,104,104,8,10,10,8,10,10,
4,4,4,4,4,89,89,3,3,3,3,3,3,3,3,3,3,3,3,12,12,12,12,7,12,7,7,7,35,43,5,5,2,2,2,2,2,104,104,104,104,104,146,50,10,10,10,10,10,10,
4,4,4,4,4,4,4,4,3,3,3,3,3,3,3,3,3,3,12,12,12,12,12,12,12,12,7,35,35,35,30,2,2,2,2,2,2,2,104,104,104,146,146,10,10,10,10,10,10,4,
4,4,4,4,4,4,4,4,4,3,3,3,3,3,3,3,3,12,12,12,12,12,12,12,12,12,12,35,35,35,2,2,2,2,2,2,2,2,2,104,146,146,146,146,10,10,10,10,4,4,
4,4,4,4,4,4,4,4,4,4,3,3,3,3,3,3,12,12,12,12,12,12,12,12,12,12,35,35,35,2,2,2,2,2,2,2,2,2,2,2,146,146,146,10,10,10,10,4,4,4,
4,4,4,4,4,4,4,4,4,4,4,3,3,3,3,12,12,12,12,12,12,12,12,12,12,12,35,35,35,35,2,2,2,2,2,2,2,2,2,146,146,146,10,10,10,10,10,10,4,4,
4,4,4,4,4,4,4,4,4,4,4,4,4,3,33,12,12,12,12,12,12,12,12,12,12,12,12,34,35,35,35,2,2,2,2,2,2,2,2,146,146,146,146,10,10,10,10,10,10,4,
4,4,4,4,4,4,4,4,4,4,4,4,33,33,33,33,12,12,12,12,12,12,12,12,12,12,12,12,205,35,22,2,2,2,2,2,2,2,2,2,146,146,146,146,10,10,10,10,4,4,
4,4,4,4,4,4,4,4,4,4,4,33,33,33,33,33,33,12,12,12,12,12,12,12,12,12,12,205,205,22,2,2,2,2,2,2,2,2,2,2,2,146,146,146,146,10,10,10,10,4,
4,4,4,4,4,4,4,4,4,4,33,33,33,33,33,33,33,33,33,12,12,12,12,12,12,12,24,24,205,205,22,2,2,2,2,2,2,2,2,2,22,11,146,146,146,169,10,10,10,169,
19,4,4,4,4,4,4,4,4,40,40,33,33,33,33,33,33,33,24,24,12,12,12,12,12,24,24,24,6,205,205,22,2,2,2,2,2,2,2,22,11,11,11,146,169,169,169,10,169,169,
19,19,4,4,4,19,38,4,40,40,40,40,33,33,33,33,33,24,24,24,24,12,12,12,24,24,24,6,6,6,205,205,22,2,2,2,2,2,22,11,11,11,11,11,169,169,169,169,169,19,
1,19,19,4,19,19,19,40,40,40,40,40,40,33,46,33,24,24,24,24,24,24,12,24,24,24,6,6,6,6,6,205,205,22,2,2,2,22,11,11,11,11,11,11,11,169,169,169,19,19,
1,1,19,19,19,19,19,19,40,40,40,40,42,321,42,24,24,24,24,24,24,24,24,24,24,6,6,6,6,6,6,6,205,205,22,2,22,11,11,11,11,11,11,11,11,11,1,19,19,1,
1,1,1,19,19,19,19,40,40,40,40,42,321,321,321,46,24,24,24,24,24,24,24,24,6,6,6,6,6,6,6,6,6,205,205,205,11,11,11,11,11,11,11,11,11,1,1,1,1,1,
1,1,1,1,19,19,19,19,40,40,42,321,321,321,321,321,24,24,24,24,24,24,24,6,6,6,6,6,6,6,6,6,6,6,205,11,11,11,11,11,11,11,11,11,1,1,1,1,1,1,
1,1,1,1,1,19,19,19,19,42,321,321,321,321,321,24,24,24,24,24,24,24,24,6,6,6,6,6,6,6,6,6,6,205,205,11,11,11,11,11,11,11,11,1,1,1,1,1,1,1,
1,1,1,1,1,1,19,19,17,17,321,321,321,321,24,24,24,24,24,24,24,24,6,6,6,6,6,6,6,6,6,6,205,205,11,11,11,11,11,11,11,11,1,1,1,1,1,1,1,1,
1,1,1,1,1,19,19,17,17,17,17,321,321,321,321,24,24,24,24,24,24,6,6,6,6,6,6,6,6,6,6,6,6,11,11,11,11,11,11,11,11,1,1,1,1,1,1,1,1,1,
1,1,1,1,19,19,17,17,17,17,17,17,321,321,321,321,24,24,24,24,6,6,6,6,6,6,6,6,6,6,6,6,11,11,11,11,11,11,11,11,11,11,1,1,1,1,1,1,1,1,
1,1,1,1,1,17,17,17,17,17,17,17,17,321,321,321,321,24,24,6,6,6,6,6,6,6,6,6,6,6,6,235,34,11,11,11,11,11,11,11,11,11,44,1,1,1,1,1,1,1,
1,1,1,1,17,17,17,17,17,17,17,17,17,17,321,321,321,321,24,24,6,6,6,6,6,6,6,6,6,6,14,235,235,34,11,11,11,11,11,11,11,15,15,16,1,1,1,1,1,1,
1,1,1,17,17,17,17,17,17,17,17,17,17,17,17,321,321,321,321,24,27,6,6,6,6,6,6,6,6,14,14,14,235,235,15,11,11,11,11,11,15,15,15,15,16,1,1,1,1,1,
1,1,17,17,17,17,17,17,17,17,17,17,17,17,321,321,321,321,321,321,270,270,6,6,6,6,6,6,14,14,14,14,14,15,15,15,11,11,11,15,15,15,15,15,15,485,1,1,1,1,
1,17,17,17,17,17,17,9,17,17,17,17,17,321,321,321,321,321,440,270,270,270,270,6,6,6,41,14,14,14,14,14,14,14,15,15,15,11,15,15,15,15,15,15,485,485,485,21,1,1,
17,17,17,17,17,17,9,9,9,17,17,17,321,321,321,321,321,440,440,440,270,270,31,31,6,37,14,14,14,14,14,14,14,14,14,15,15,15,15,15,15,15,15,485,485,485,485,485,21,1,
320,17,17,17,17,9,9,9,9,9,17,321,321,321,321,321,440,440,440,440,440,31,31,31,31,14,14,14,14,14,14,14,14,14,14,14,15,15,15,15,15,15,485,485,485,485,485,485,485,320,
320,320,17,17,9,9,9,9,9,9,9,321,321,321,39,440,440,440,440,440,440,440,31,31,14,14,14,14,14,14,14,14,14,14,14,15,15,15,15,15,15,15,485,485,485,485,485,485,485,485,
485,320,320,9,9,9,9,9,9,9,9,9,321,39,440,440,440,440,440,440,440,440,440,31,31,14,14,14,14,14,14,14,14,14,15,15,15,15,15,15,15,485,485,485,485,485,485,485,485,485,
485,485,9,9,9,9,9,9,9,9,9,9,9,440,440,440,440,440,440,440,651,440,440,440,31,31,14,14,14,14,14,14,14,14,15,15,15,15,15,15,485,485,485,485,485,485,485,485,485,485,
485,622,48,9,9,9,9,9,9,9,9,9,440,440,440,440,440,440,440,651,651,651,440,31,31,31,31,14,14,14,14,14,14,14,14,15,15,15,15,485,485,485,485,485,485,485,485,485,485,485,
622,622,622,9,9,9,9,9,9,9,9,9,9,440,440,440,440,440,651,651,651,651,651,31,31,31,31,14,14,14,14,14,14,14,14,14,15,15,644,485,485,485,25,485,485,485,485,485,485,485,
622,622,9,9,9,9,9,9,9,9,9,9,9,9,440,440,440,651,651,651,651,651,651,651,31,31,14,14,14,14,14,14,14,14,14,14,14,644,644,644,485,45,45,25,485,485,485,485,485,622,
622,622,622,9,9,9,9,9,9,9,9,9,9,9,9,440,651,651,651,651,651,651,651,651,651,31,31,14,14,14,14,14,14,14,14,14,644,644,644,644,644,644,45,45,25,485,485,485,622,622,
622,622,622,622,9,9,9,9,9,9,9,9,9,9,9,9,651,651,651,651,651,651,651,651,651,651,31,31,14,14,14,14,14,14,14,644,644,644,644,644,644,644,644,45,45,25,485,622,622,622,
622,622,622,622,622,9,9,9,9,9,9,9,9,9,9,9,9,651,651,651,651,651,651,651,651,31,31,31,31,14,14,14,14,14,644,644,644,644,644,644,644,644,644,644,45,45,622,622,622,622,
622,622,622,622,622,622,9,9,9,9,9,9,9,9,9,9,20,651,651,651,651,651,651,651,651,651,31,31,36,36,7,14,5,644,644,644,644,644,644,644,644,644,644,644,644,8,622,622,622,622,
622,622,622,622,622,26,26,9,9,9,9,9,9,9,9,18,651,651,651,651,651,651,651,651,651,651,651,36,36,7,7,5,5,5,644,644,644,644,644,644,644,644,644,644,8,8,8,622,622,622,
622,622,622,622,26,26,26,26,29,9,9,9,9,9,18,18,18,651,651,651,651,651,651,651,651,651,36,36,7,7,5,5,5,5,5,644,644,644,644,644,644,644,644,8,8,8,8,8,622,622,
622,622,622,26,26,26,26,26,26,29,9,9,9,18,18,18,18,18,651,651,651,651,651,651,651,651,651,7,7,5,5,5,5,5,5,5,644,644,644,644,644,644,8,8,8,8,8,8,8,622,
622,622,26,26,26,26,26,26,26,18,18,9,18,18,18,18,18,651,651,651,651,651,651,651,651,651,7,7,5,5,5,5,5,5,5,5,5,644,644,644,644,8,8,8,8,8,8,8,8,8,
8,26,26,26,26,26,26,26,26,29,18,18,18,18,18,18,18,18,651,651,651,651,651,7,651,7,7,5,5,5,5,5,5,5,5,5,5,5,644,644,8,8,8,8,8,8,8,8,8,8,
26,26,26,26,26,26,26,26,3,18,18,18,18,18,18,18,18,18,18,651,651,651,7,7,7,13,7,7,5,5,5,5,5,5,5,5,5,5,5,49,23,8,8,8,8,8,8,8,8,8,
8,26,26,26,26,26,26,3,3,3,18,18,18,18,18,18,18,18,18,18,651,7,7,7,7,7,7,7,7,5,5,5,5,5,5,5,5,5,5,5,49,8,8,8,8,8,8,8,8,8,
