8,8,26,26,26,26,3,3,3,3,3,18,18,18,18,18,18,18,18,18,7,7,7,7,7,7,7,7,7,7,5,5,5,5,5,5,5,5,5,5,5,8,8,8,8,8,8,8,8,8,
8,8,8,71,26,3,3,3,3,3,3,3,18,18,18,18,18,18,18,7,7,7,7,7,7,7,7,7,7,7,5,5,5,5,5,5,5,5,5,5,5,5,8,8,8,8,8,8,8,8,
8,8,71,71,3,3,3,3,3,3,3,3,3,3,18,18,18,18,7,7,7,7,7,7,7,7,7,7,7,5,5,5,5,5,5,5,5,5,5,5,5,8,8,8,8,8,8,8,8,8,
8,71,71,3,3,3,3,3,3,3,3,3,3,3,3,28,18,66,66,7,7,7,7,7,7,7,7,7,5,5,5,5,5,5,5,5,5,5,5,5,104,8,8,8,8,8,8,8,8,8,
71,71,71,71,3,3,3,3,3,3,3,3,3,3,3,3,28,12,66,66,7,7,7,7,7,7,7,5,5,5,5,5,5,5,5,5,5,5,5,104,104,104,8,8,8,8,8,8,8,8,
10,71,4,71,28,3,3,3,3,3,3,3,3,3,3,3,3,12,12,47,12,7,7,7,7,7,7,7,5,5,5,5,5,5,2,5,5,5,104,104,104,104,104,8,8,8,8,8,8,10,
10,4,4,4,32,89,3,3,3,3,3,3,3,3,3,3,3,3,12,12,12,12,7,7,7,7,7,7,7,5,5,5,5,2,2,2,5,104,104,104,104,104,104,104,8,10,10,8,10,10,
4,4,4,4,4,89,89,3,3,3,3,3,3,3,3,3,3,3,3,12,12,12,12,7,12,7,7,7,35,43,5,5,2,2,2,2,2,104,104,104,104,104,146,50,10,10,10,10,10,10,
4,4,4,4,4,4,4,4,3,3,3,3,3,3,3,3,3,3,12,12,12,12,12,12,12,12,7,35,35,35,30,2,2,2,2,2,2,2,104,104,104,146,146,10,10,10,10,10,10,4,
4,4,4,4,4,4,4,4,4,3,3,3,3,3,3,3,3,12,12,12,12,12,12,12,12,12,12,35,35,35,2,2,2,2,2,2,2,2,2,104,146,146,146,146,10,10,10,10,4,4,
4,4,4,4,4,4,4,4,4,4,3,3,3,3,3,3,12,12,12,12,12,12,12,12,12,12,35,35,35,2,2,2,2,2,2,2,2,2,2,2,146,146,146,10,10,10,10,4,4,4,
4,4,4,4,4,4,4,4,4,4,4,3,3,3,3,12,12,12,12,12,12,12,12,12,12,12,35,35,35,35,2,2,2,2,2,2,2,2,2,146,146,146,10,10,10,10,10,10,4,4,
4,4,4,4,4,4,4,4,4,4,4,4,4,3,33,12,12,12,12,12,12,12,12,12,12,12,12,34,35,35,35,2,2,2,2,2,2,2,2,146,146,146,146,10,10,10,10,10,10,4,
4,4,4,4,4,4,4,4,4,4,4,4,33,33,33,33,12,12,12,12,12,12,12,12,12,12,12,12,205,35,22,2,2,2,2,2,2,2,2,2,146,146,146,146,10,10,10,10,4,4,
4,4,4,4,4,4,4,4,4,4,4,33,33,33,33,33,33,12,12,12,12,12,12,12,12,12,12,205,205,22,2,2,2,2,2,2,2,2,2,2,2,146,146,146,146,10,10,10,10,4,
4,4,4,4,4,4,4,4,4,4,33,33,33,33,33,33,33,33,33,12,12,12,12,12,12,12,24,24,205,205,22,2,2,2,2,2,2,2,2,2,22,11,146,146,146,169,10,10,10,169,
19,4,4,4,4,4,4,4,4,40,40,33,33,33,33,33,33,33,24,24,12,12,12,12,12,24,24,24,6,205,205,22,2,2,2,2,2,2,2,22,11,11,11,146,169,169,169,10,169,169,
19,19,4,4,4,19,38,4,40,40,40,40,33,33,33,33,33,24,24,24,24,12,12,12,24,24,24,6,6,6,205,205,22,2,2,2,2,2,22,11,11,11,11,11,169,169,169,169,169,19,
1,19,19,4,19,19,19,40,40,40,40,40,40,33,46,33,24,24,24,24,24,24,12,24,24,24,6,6,6,6,6,205,205,22,2,2,2,22,11,11,11,11,11,11,11,169,169,169,19,19,
1,1,19,19,19,19,19,19,40,40,40,40,42,321,42,24,24,24,24,24,24,24,24,24,24,6,6,6,6,6,6,6,205,205,22,2,22,11,11,11,11,11,11,11,11,11,1,19,19,1,
1,1,1,19,19,19,19,40,40,40,40,42,321,321,321,46,24,24,24,24,24,24,24,24,6,6,6,6,6,6,6,6,6,205,205,205,11,11,11,11,11,11,11,11,11,1,1,1,1,1,
1,1,1,1,19,19,19,19,40,40,42,321,321,321,321,321,24,24,24,24,24,24,24,6,6,6,6,6,6,6,6,6,6,6,205,11,11,11,11,11,11,11,11,11,1,1,1,1,1,1,
1,1,1,1,1,19,19,19,19,42,321,321,321,321,321,24,24,24,24,24,24,24,24,6,6,6,6,6,6,6,6,6,6,205,205,11,11,11,11,11,11,11,11,1,1,1,1,1,1,1,
1,1,1,1,1,1,19,19,17,17,321,321,321,321,24,24,24,24,24,24,24,24,6,6,6,6,6,6,6,6,6,6,205,205,11,11,11,11,11,11,11,11,1,1,1,1,1,1,1,1,
1,1,1,1,1,19,19,17,17,17,17,321,321,321,321,24,24,24,24,24,24,6,6,6,6,6,6,6,6,6,6,6,6,11,11,11,11,11,11,11,11,1,1,1,1,1,1,1,1,1,
1,1,1,1,19,19,17,17,17,17,17,17,321,321,321,321,24,24,24,24,6,6,6,6,6,6,6,6,6,6,6,6,11,11,11,11,11,11,11,11,11,11,1,1,1,1,1,1,1,1,
1,1,1,1,1,17,17,17,17,17,17,17,17,321,321,321,321,24,24,6,6,6,6,6,6,6,6,6,6,6,6,235,34,11,11,11,11,11,11,11,11,11,44,1,1,1,1,1,1,1,
1,1,1,1,17,17,17,17,17,17,17,17,17,17,321,321,321,321,24,24,6,6,6,6,6,6,6,6,6,6,14,235,235,34,11,11,11,11,11,11,11,15,15,16,1,1,1,1,1,1,
1,1,1,17,17,17,17,17,17,17,17,17,17,17,17,321,321,321,321,24,27,6,6,6,6,6,6,6,6,14,14,14,235,235,15,11,11,11,11,11,15,15,15,15,16,1,1,1,1,1,
1,1,17,17,17,17,17,17,17,17,17,17,17,17,321,321,321,321,321,321,270,270,6,6,6,6,6,6,14,14,14,14,14,15,15,15,11,11,11,15,15,15,15,15,15,485,1,1,1,1,
1,17,17,17,17,17,17,9,17,17,17,17,17,321,321,321,321,321,440,270,270,270,270,6,6,6,41,14,14,14,14,14,14,14,15,15,15,11,15,15,15,15,15,15,485,485,485,21,1,1,
17,17,17,17,17,17,9,9,9,17,17,17,321,321,321,321,321,440,440,440,270,270,31,31,6,37,14,14,14,14,14,14,14,14,14,15,15,15,15,15,15,15,15,485,485,485,485,485,21,1,
320,17,17,17,17,9,9,9,9,9,17,321,321,321,321,321,440,440,440,440,440,31,31,31,31,14,14,14,14,14,14,14,14,14,14,14,15,15,15,15,15,15,485,485,485,485,485,485,485,320,
320,320,17,17,9,9,9,9,9,9,9,321,321,321,39,440,440,440,440,440,440,440,31,31,14,14,14,14,14,14,14,14,14,14,14,15,15,15,15,15,15,15,485,485,485,485,485,485,485,485,
485,320,320,9,9,9,9,9,9,9,9,9,321,39,440,440,440,440,440,440,440,440,440,31,31,14,14,14,14,14,14,14,14,14,15,15,15,15,15,15,15,485,485,485,485,485,485,485,485,485,
485,485,9,9,9,9,9,9,9,9,9,9,9,440,440,440,440,440,440,440,651,440,440,440,31,31,14,14,14,14,14,14,14,14,15,15,15,15,15,15,485,485,485,485,485,485,485,485,485,485,
485,622,48,9,9,9,9,9,9,9,9,9,440,440,440,440,440,440,440,651,651,651,440,31,31,31,31,14,14,14,14,14,14,14,14,15,15,15,15,485,485,485,485,485,485,485,485,485,485,485,
622,622,622,9,9,9,9,9,9,9,9,9,9,440,440,440,440,440,651,651,651,651,651,31,31,31,31,14,14,14,14,14,14,14,14,14,15,15,644,485,485,485,25,485,485,485,485,485,485,485,
622,622,9,9,9,9,9,9,9,9,9,9,9,9,440,440,440,651,651,651,651,651,651,651,31,31,14,14,14,14,14,14,14,14,14,14,14,644,644,644,485,45,45,25,485,485,485,485,485,622,
622,622,622,9,9,9,9,9,9,9,9,9,9,9,9,440,651,651,651,651,651,651,651,651,651,31,31,14,14,14,14,14,14,14,14,14,644,644,644,644,644,644,45,45,25,485,485,485,622,622,
622,622,622,622,9,9,9,9,9,9,9,9,9,9,9,9,651,651,651,651,651,651,651,651,651,651,31,31,14,14,14,14,14,14,14,644,644,644,644,644,644,644,644,45,45,25,485,622,622,622,
622,622,622,622,622,9,9,9,9,9,9,9,9,9,9,9,9,651,651,651,651,651,651,651,651,31,31,31,31,14,14,14,14,14,644,644,644,644,644,644,644,644,644,644,45,45,622,622,622,622,
622,622,622,622,622,622,9,9,9,9,9,9,9,9,9,9,20,651,651,651,651,651,651,651,651,651,31,31,36,36,7,14,5,644,644,644,644,644,644,644,644,644,644,644,644,8,622,622,622,622,
622,622,622,622,622,26,26,9,9,9,9,9,9,9,9,18,651,651,651,651,651,651,651,651,651,651,651,36,36,7,7,5,5,5,644,644,644,644,644,644,644,644,644,644,8,8,8,622,622,622,
622,622,622,622,26,26,26,26,29,9,9,9,9,9,18,18,18,651,651,651,651,651,651,651,651,651,36,36,7,7,5,5,5,5,5,644,644,644,644,644,644,644,644,8,8,8,8,8,622,622,
622,622,622,26,26,26,26,26,26,29,9,9,9,18,18,18,18,18,651,651,651,651,651,651,651,651,651,7,7,5,5,5,5,5,5,5,644,644,644,644,644,644,8,8,8,8,8,8,8,622,
622,622,26,26,26,26,26,26,26,18,18,9,18,18,18,18,18,651,651,651,651,651,651,651,651,651,7,7,5,5,5,5,5,5,5,5,5,644,644,644,644,8,8,8,8,8,8,8,8,8,
8,26,26,26,26,26,26,26,26,29,18,18,18,18,18,18,18,18,651,651,651,651,651,7,651,7,7,5,5,5,5,5,5,5,5,5,5,5,644,644,8,8,8,8,8,8,8,8,8,8,
26,26,26,26,26,26,26,26,3,18,18,18,18,18,18,18,18,18,18,651,651,651,7,7,7,13,7,7,5,5,5,5,5,5,5,5,5,5,5,49,23,8,8,8,8,8,8,8,8,8,
8,26,26,26,26,26,26,3,3,3,18,18,18,18,18,18,18,18,18,18,651,7,7,7,7,7,7,7,7,5,5,5,5,5,5,5,5,5,5,5,49,8,8,8,8,8,8,8,8,8,
